# Blender v2.77 (sub 0) OBJ File: 'navecu3.blend'
# www.blender.org
mtllib navecu3.mtl
o Cylinder.003
v -2.911698 0.539199 -0.578963
v -1.318425 0.539199 -0.850553
v -2.911698 0.426073 -0.567821
v -1.318425 0.373089 -0.834193
v -2.911698 0.317294 -0.534823
v -1.318425 0.213361 -0.785740
v -2.911698 0.217043 -0.481238
v -1.318425 0.066156 -0.707057
v -2.911698 0.129173 -0.409124
v -1.318425 -0.062871 -0.601168
v -2.911698 0.057059 -0.321254
v -1.318425 -0.168760 -0.472141
v -2.911698 0.003474 -0.221003
v -1.318425 -0.247443 -0.324936
v -2.911698 -0.029524 -0.112224
v -1.318425 -0.295896 -0.165209
v -2.911698 -0.040666 0.000902
v -1.318425 -0.312256 0.000902
v -2.911698 -0.029524 0.114028
v -1.318424 -0.295896 0.167013
v -2.911698 0.003474 0.222807
v -1.318424 -0.247443 0.326740
v -2.911698 0.057059 0.323058
v -1.318424 -0.168760 0.473945
v -2.911698 0.129173 0.410928
v -1.318424 -0.062871 0.602972
v -2.911698 0.217043 0.483042
v -1.318424 0.066156 0.708861
v -2.911698 0.317294 0.536627
v -1.318425 0.213362 0.787544
v -2.911698 0.426073 0.569625
v -1.318425 0.373089 0.835997
v -2.911698 0.539199 0.580767
v -1.318425 0.539200 0.852357
v -2.911698 0.652325 0.569625
v -1.318425 0.705310 0.835997
v -2.911698 0.761104 0.536627
v -1.318425 0.865037 0.787544
v -2.911698 0.861355 0.483042
v -1.318425 1.012243 0.708861
v -2.911698 0.949226 0.410928
v -1.318425 1.141269 0.602971
v -2.911698 1.021339 0.323057
v -1.318425 1.247159 0.473945
v -2.911698 1.074924 0.222806
v -1.318425 1.325842 0.326739
v -2.911698 1.107922 0.114028
v -1.318425 1.374294 0.167012
v -2.911698 1.119064 0.000901
v -1.318425 1.390654 0.000901
v -2.911698 1.107922 -0.112225
v -1.318425 1.374294 -0.165210
v -2.911698 1.074924 -0.221003
v -1.318425 1.325841 -0.324937
v -2.911698 1.021339 -0.321254
v -1.318425 1.247158 -0.472142
v -2.911698 0.949225 -0.409125
v -1.318425 1.141268 -0.601169
v -2.911698 0.861354 -0.481238
v -1.318425 1.012241 -0.707058
v -2.911698 0.761103 -0.534824
v -1.318425 0.865036 -0.785741
v -2.911698 0.652324 -0.567821
v -1.318425 0.705309 -0.834193
v -0.714335 0.373089 -0.834193
v -0.714335 0.539199 -0.850553
v -0.714335 0.213361 -0.785740
v -0.714335 0.066156 -0.707057
v -0.714335 -0.062871 -0.601168
v -0.714335 -0.168760 -0.472141
v -0.714335 -0.247443 -0.324936
v -0.714335 -0.295896 -0.165209
v -0.714335 -0.312256 0.000902
v -0.714335 -0.295896 0.167012
v -0.714335 -0.247443 0.326740
v -0.714335 -0.168760 0.473945
v -0.714335 -0.062871 0.602972
v -0.714335 0.066156 0.708861
v -0.714335 0.213362 0.787544
v -0.714335 0.373089 0.835997
v -0.714335 0.539200 0.852357
v -0.714335 0.705310 0.835997
v -0.714335 0.865037 0.787544
v -0.714335 1.012243 0.708861
v -0.714335 1.141269 0.602971
v -0.714335 1.247159 0.473945
v -0.714335 1.325842 0.326739
v -0.714335 1.374294 0.167012
v -0.714335 1.390655 0.000901
v -0.714335 1.374294 -0.165210
v -0.714335 1.325841 -0.324937
v -0.714335 1.247158 -0.472142
v -0.714335 1.141268 -0.601169
v -0.714335 1.012242 -0.707058
v -0.714335 0.865036 -0.785741
v -0.714335 0.705309 -0.834193
vn -0.1673 -0.0966 -0.9812
vn -0.1673 -0.2862 -0.9435
vn -0.1673 -0.4648 -0.8695
vn -0.1673 -0.6255 -0.7621
vn -0.1673 -0.7621 -0.6255
vn -0.1673 -0.8695 -0.4648
vn -0.1673 -0.9435 -0.2862
vn -0.1673 -0.9812 -0.0966
vn -0.1673 -0.9812 0.0966
vn -0.1673 -0.9435 0.2862
vn -0.1673 -0.8695 0.4648
vn -0.1673 -0.7621 0.6255
vn -0.1673 -0.6255 0.7621
vn -0.1673 -0.4648 0.8695
vn -0.1673 -0.2862 0.9435
vn -0.1673 -0.0966 0.9812
vn -0.1673 0.0966 0.9812
vn -0.1673 0.2862 0.9435
vn -0.1673 0.4648 0.8695
vn -0.1673 0.6255 0.7621
vn -0.1673 0.7621 0.6255
vn -0.1673 0.8695 0.4648
vn -0.1673 0.9435 0.2862
vn -0.1673 0.9812 0.0966
vn -0.1673 0.9812 -0.0966
vn -0.1673 0.9435 -0.2862
vn -0.1673 0.8695 -0.4648
vn -0.1673 0.7621 -0.6255
vn -0.1673 0.6255 -0.7621
vn -0.1673 0.4648 -0.8695
vn -0.0000 0.9952 -0.0980
vn -0.1673 0.2862 -0.9435
vn -0.1673 0.0966 -0.9812
vn -1.0000 -0.0000 0.0000
vn 1.0000 0.0000 -0.0000
vn -0.0000 -0.4714 -0.8819
vn 0.0000 -0.7730 0.6344
vn -0.0000 0.7730 0.6344
vn -0.0000 0.4714 -0.8819
vn -0.0000 -0.9952 -0.0980
vn 0.0000 0.0980 0.9952
vn -0.0000 0.9569 -0.2903
vn -0.0000 -0.6344 -0.7730
vn 0.0000 -0.6344 0.7730
vn -0.0000 0.8819 0.4714
vn -0.0000 0.2903 -0.9569
vn -0.0000 -0.9952 0.0980
vn 0.0000 0.2903 0.9569
vn -0.0000 0.8819 -0.4714
vn -0.0000 -0.7730 -0.6344
vn 0.0000 -0.4714 0.8819
vn -0.0000 0.9569 0.2903
vn -0.0000 -0.0980 -0.9952
vn -0.0000 0.0980 -0.9952
vn 0.0000 -0.9569 0.2903
vn 0.0000 0.4714 0.8819
vn -0.0000 0.7730 -0.6344
vn -0.0000 -0.8819 -0.4714
vn 0.0000 -0.2903 0.9569
vn -0.0000 0.9952 0.0980
vn -0.0000 -0.2903 -0.9569
vn -0.0000 -0.8819 0.4714
vn 0.0000 0.6344 0.7730
vn -0.0000 0.6344 -0.7730
vn -0.0000 -0.9569 -0.2903
vn 0.0000 -0.0980 0.9952
usemtl Material.007
s off
f 1//1 2//1 4//1 3//1
f 3//2 4//2 6//2 5//2
f 5//3 6//3 8//3 7//3
f 7//4 8//4 10//4 9//4
f 9//5 10//5 12//5 11//5
f 11//6 12//6 14//6 13//6
f 13//7 14//7 16//7 15//7
f 15//8 16//8 18//8 17//8
f 17//9 18//9 20//9 19//9
f 19//10 20//10 22//10 21//10
f 21//11 22//11 24//11 23//11
f 23//12 24//12 26//12 25//12
f 25//13 26//13 28//13 27//13
f 27//14 28//14 30//14 29//14
f 29//15 30//15 32//15 31//15
f 31//16 32//16 34//16 33//16
f 33//17 34//17 36//17 35//17
f 35//18 36//18 38//18 37//18
f 37//19 38//19 40//19 39//19
f 39//20 40//20 42//20 41//20
f 41//21 42//21 44//21 43//21
f 43//22 44//22 46//22 45//22
f 45//23 46//23 48//23 47//23
f 47//24 48//24 50//24 49//24
f 49//25 50//25 52//25 51//25
f 51//26 52//26 54//26 53//26
f 53//27 54//27 56//27 55//27
f 55//28 56//28 58//28 57//28
f 57//29 58//29 60//29 59//29
f 59//30 60//30 62//30 61//30
f 52//31 50//31 89//31 90//31
f 61//32 62//32 64//32 63//32
f 63//33 64//33 2//33 1//33
f 1//34 3//34 5//34 7//34 9//34 11//34 13//34 15//34 17//34 19//34 21//34 23//34 25//34 27//34 29//34 31//34 33//34 35//34 37//34 39//34 41//34 43//34 45//34 47//34 49//34 51//34 53//34 55//34 57//34 59//34 61//34 63//34
f 65//35 66//35 96//35 95//35 94//35 93//35 92//35 91//35 90//35 89//35 88//35 87//35 86//35 85//35 84//35 83//35 82//35 81//35 80//35 79//35 78//35 77//35 76//35 75//35 74//35 73//35 72//35 71//35 70//35 69//35 68//35 67//35
f 8//36 6//36 67//36 68//36
f 26//37 24//37 76//37 77//37
f 44//38 42//38 85//38 86//38
f 62//39 60//39 94//39 95//39
f 18//40 16//40 72//40 73//40
f 36//41 34//41 81//41 82//41
f 54//42 52//42 90//42 91//42
f 10//43 8//43 68//43 69//43
f 28//44 26//44 77//44 78//44
f 46//45 44//45 86//45 87//45
f 64//46 62//46 95//46 96//46
f 20//47 18//47 73//47 74//47
f 38//48 36//48 82//48 83//48
f 56//49 54//49 91//49 92//49
f 12//50 10//50 69//50 70//50
f 30//51 28//51 78//51 79//51
f 48//52 46//52 87//52 88//52
f 4//53 2//53 66//53 65//53
f 2//54 64//54 96//54 66//54
f 22//55 20//55 74//55 75//55
f 40//56 38//56 83//56 84//56
f 58//57 56//57 92//57 93//57
f 14//58 12//58 70//58 71//58
f 32//59 30//59 79//59 80//59
f 50//60 48//60 88//60 89//60
f 6//61 4//61 65//61 67//61
f 24//62 22//62 75//62 76//62
f 42//63 40//63 84//63 85//63
f 60//64 58//64 93//64 94//64
f 16//65 14//65 71//65 72//65
f 34//66 32//66 80//66 81//66
o Icosphere
v 1.998724 1.090281 0.866068
v 2.410525 1.168797 0.515416
v 1.884791 1.493715 0.515414
v 0.998728 1.090280 0.541144
v 1.459467 1.168798 0.824431
v 1.297013 1.493715 0.324430
v 0.998728 1.090280 -0.510306
v 0.871688 1.168797 0.015419
v 1.297013 1.493715 -0.293592
v 1.998724 1.090281 -0.835230
v 1.459467 1.168798 -0.793593
v 1.884791 1.493715 -0.484576
v 2.616762 1.090276 0.015419
v 2.410525 1.168797 -0.484578
v 2.248065 1.493712 0.015419
v 1.722336 1.643061 0.015419
v 2.673393 0.643061 -0.293594
v 2.310121 0.643061 -0.793598
v 1.722336 0.643061 -0.984581
v 1.134550 0.643061 -0.793598
v 0.771278 0.643061 -0.293594
v 0.771278 0.643061 0.324432
v 1.134550 0.643061 0.824436
v 1.722336 0.643061 1.015419
v 2.310121 0.643061 0.824436
v 2.673393 0.643061 0.324432
vt 0.0000 0.0000
vt 1.0000 0.0000
vt 1.0000 1.0000
vt 0.0000 0.0000
vt 1.0000 0.0000
vt 1.0000 1.0000
vt 0.0000 0.0000
vt 1.0000 0.0000
vt 1.0000 1.0000
vt 0.0000 0.0000
vt 1.0000 0.0000
vt 1.0000 1.0000
vt 0.0000 0.0000
vt 1.0000 0.0000
vt 1.0000 1.0000
vt 0.0000 0.0000
vt 1.0000 0.0000
vt 1.0000 1.0000
vt 0.0000 0.0000
vt 1.0000 0.0000
vt 0.0000 0.0000
vt 1.0000 0.0000
vt 0.0000 0.0000
vt 1.0000 0.0000
vt 0.0000 0.0000
vt 1.0000 0.0000
vt 0.0000 0.0000
vt 1.0000 0.0000
vt 0.0000 0.0000
vt 1.0000 0.0000
vt 0.0000 0.0000
vt 1.0000 0.0000
vt 0.0000 0.0000
vt 1.0000 0.0000
vt 0.0000 0.0000
vt 1.0000 0.0000
vt 0.0000 0.0000
vt 1.0000 1.0000
vt 1.0000 0.0000
vt 1.0000 1.0000
vt 0.0000 0.0000
vt 0.0000 0.0000
vt 1.0000 1.0000
vt 1.0000 0.0000
vt 1.0000 1.0000
vt 0.0000 0.0000
vt 0.0000 0.0000
vt 1.0000 1.0000
vt 1.0000 0.0000
vt 1.0000 1.0000
vt 0.0000 0.0000
vt 0.0000 0.0000
vt 1.0000 1.0000
vt 1.0000 0.0000
vt 1.0000 1.0000
vt 0.0000 0.0000
vt 0.0000 0.0000
vt 1.0000 1.0000
vt 1.0000 0.0000
vt 1.0000 1.0000
vt 0.0000 0.0000
vt 1.0000 0.0000
vt 1.0000 0.0000
vt 1.0000 0.0000
vt 1.0000 0.0000
vt 1.0000 0.0000
vn 0.4089 0.6617 0.6284
vn -0.4713 0.6617 0.5831
vn -0.7002 0.6617 -0.2680
vn 0.0385 0.6617 -0.7488
vn 0.7240 0.6617 -0.1947
vn 0.2680 0.9435 -0.1947
vn 0.4911 0.7947 -0.3568
vn 0.4089 0.6617 -0.6284
vn -0.1024 0.9435 -0.3151
vn -0.1876 0.7947 -0.5773
vn -0.4713 0.6617 -0.5831
vn -0.3313 0.9435 0.0000
vn -0.6071 0.7947 0.0000
vn -0.7002 0.6617 0.2680
vn -0.1024 0.9435 0.3151
vn -0.1876 0.7947 0.5773
vn 0.0385 0.6617 0.7488
vn 0.2680 0.9435 0.1947
vn 0.4911 0.7947 0.3568
vn 0.7240 0.6617 0.1947
vn 0.8897 0.3304 -0.3151
vn 0.7947 0.1876 -0.5773
vn 0.5746 0.3304 -0.7488
vn -0.0247 0.3304 -0.9435
vn -0.3035 0.1876 -0.9342
vn -0.5346 0.3304 -0.7779
vn -0.9050 0.3304 -0.2680
vn -0.9822 0.1876 0.0000
vn -0.9050 0.3304 0.2680
vn -0.5346 0.3304 0.7779
vn -0.3035 0.1876 0.9342
vn -0.0247 0.3304 0.9435
vn 0.5746 0.3304 0.7488
vn 0.7947 0.1876 0.5773
vn 0.8897 0.3304 0.3151
vn 0.3066 0.1256 -0.9435
vn -0.8026 0.1256 -0.5831
vn -0.8026 0.1256 0.5831
vn 0.3066 0.1256 0.9435
vn 0.9921 0.1256 0.0000
usemtl Material.006
s 1
f 97/1/67 98/2/67 99/3/67
f 100/4/68 101/5/68 102/6/68
f 103/7/69 104/8/69 105/9/69
f 106/10/70 107/11/70 108/12/70
f 109/13/71 110/14/71 111/15/71
f 111/16/72 108/17/72 112/18/72
f 111/16/73 110/14/73 108/12/73
f 110/19/74 106/20/74 108/12/74
f 108/21/75 105/22/75 112/18/75
f 108/21/76 107/11/76 105/9/76
f 107/23/77 103/24/77 105/9/77
f 105/25/78 102/26/78 112/18/78
f 105/25/79 104/8/79 102/6/79
f 104/27/80 100/28/80 102/6/80
f 102/29/81 99/30/81 112/18/81
f 102/29/82 101/5/82 99/3/82
f 101/31/83 97/32/83 99/3/83
f 99/33/84 111/34/84 112/18/84
f 99/33/85 98/2/85 111/15/85
f 98/35/86 109/36/86 111/15/86
f 113/37/87 110/14/87 109/38/87
f 113/37/88 114/39/88 110/40/88
f 114/41/89 106/20/89 110/40/89
f 115/42/90 107/11/90 106/43/90
f 115/42/91 116/44/91 107/45/91
f 116/46/92 103/24/92 107/45/92
f 117/47/93 104/8/93 103/48/93
f 117/47/94 118/49/94 104/50/94
f 118/51/95 100/28/95 104/50/95
f 119/52/96 101/5/96 100/53/96
f 119/52/97 120/54/97 101/55/97
f 120/56/98 97/32/98 101/55/98
f 121/57/99 98/2/99 97/58/99
f 121/57/100 122/59/100 98/60/100
f 122/61/101 109/36/101 98/60/101
f 114/41/102 115/62/102 106/43/102
f 116/46/103 117/63/103 103/48/103
f 118/51/104 119/64/104 100/53/104
f 120/56/105 121/65/105 97/58/105
f 122/61/106 113/66/106 109/38/106
o Cube.006_Cube.004
v -0.693739 1.796487 2.499566
v -0.693739 1.796487 0.499566
v -1.547066 1.098206 0.139123
v -1.547066 1.098206 2.860008
v 1.306261 1.796487 0.499566
v 1.173818 1.098206 0.139123
v 1.306261 1.796487 2.499566
v 1.173818 1.098206 2.860008
v 0.827975 1.916975 0.977852
v 0.827975 1.916975 2.021279
v -0.215452 1.916975 0.977852
v -0.215452 1.916975 2.021279
v -0.693739 1.796487 -2.691638
v -1.547066 1.098207 -3.052080
v -1.547066 1.098206 -0.331195
v -0.693739 1.796487 -0.691638
v 1.173818 1.098206 -0.331195
v 1.306261 1.796487 -0.691638
v 1.173818 1.098207 -3.052080
v 1.306261 1.796487 -2.691638
v 0.827975 1.916975 -2.213351
v 0.827975 1.916975 -1.169924
v -0.215452 1.916975 -2.213351
v -0.215452 1.916975 -1.169924
vt 0.0000 0.0000
vt 1.0000 0.0000
vt 1.0000 1.0000
vt 0.0000 1.0000
vt 0.0000 0.0000
vt 1.0000 0.0000
vt 1.0000 1.0000
vt 0.0000 1.0000
vt 0.0000 0.0000
vt 1.0000 0.0000
vt 1.0000 1.0000
vt 0.0000 1.0000
vt 0.0000 0.0000
vt 1.0000 0.0000
vt 1.0000 1.0000
vt 0.0000 1.0000
vt 0.0000 0.0000
vt 1.0000 0.0000
vt 1.0000 1.0000
vt 0.0000 1.0000
vt 0.0000 0.0000
vt 1.0000 0.0000
vt 1.0000 1.0000
vt 0.0000 1.0000
vt 1.0000 1.0000
vt 0.0000 1.0000
vt 1.0000 1.0000
vt 0.0000 1.0000
vt 0.0000 0.0000
vt 1.0000 0.0000
vt 1.0000 1.0000
vt 0.0000 1.0000
vt 0.0000 0.0000
vt 1.0000 0.0000
vt 1.0000 1.0000
vt 0.0000 1.0000
vt 0.0000 0.0000
vt 1.0000 0.0000
vt 1.0000 1.0000
vt 0.0000 1.0000
vt 0.0000 0.0000
vt 1.0000 0.0000
vt 1.0000 1.0000
vt 0.0000 1.0000
vt 0.0000 0.0000
vt 0.0000 1.0000
vt 1.0000 0.0000
vt 1.0000 1.0000
vt 0.0000 0.0000
vt 1.0000 0.0000
vt 1.0000 1.0000
vt 0.0000 1.0000
vt 1.0000 0.0000
vt 1.0000 1.0000
vt 1.0000 1.0000
vt 1.0000 0.0000
vn -0.6333 0.7739 0.0000
vn 0.0000 0.4587 -0.8886
vn 0.9825 -0.1863 -0.0000
vn 0.0000 0.4587 0.8886
vn 0.0000 -1.0000 -0.0000
vn 0.2443 0.9697 0.0000
vn 0.0000 1.0000 0.0000
vn -0.2443 0.9697 0.0000
vn 0.0000 0.9697 0.2443
vn 0.0000 0.9697 -0.2443
usemtl Material.011
s 1
f 123/67/107 124/68/107 125/69/107 126/70/107
f 124/71/108 127/72/108 128/73/108 125/74/108
f 127/75/109 129/76/109 130/77/109 128/78/109
f 129/79/110 123/80/110 126/81/110 130/82/110
f 126/83/111 125/84/111 128/73/111 130/82/111
f 129/79/112 127/72/112 131/85/112 132/86/112
f 132/87/113 131/88/113 133/89/113 134/90/113
f 124/71/114 123/80/114 134/91/114 133/92/114
f 123/67/115 129/76/115 132/93/115 134/90/115
f 127/75/116 124/68/116 133/89/116 131/94/116
f 135/95/107 136/96/107 137/97/107 138/98/107
f 138/99/110 137/100/110 139/101/110 140/102/110
f 140/103/109 139/104/109 141/105/109 142/106/109
f 142/107/108 141/108/108 136/109/108 135/110/108
f 136/111/111 141/108/111 139/101/111 137/112/111
f 142/107/112 143/113/112 144/114/112 140/102/112
f 143/115/113 145/116/113 146/117/113 144/118/113
f 138/99/114 146/119/114 145/120/114 135/110/114
f 135/95/116 145/116/116 143/121/116 142/106/116
f 140/103/115 144/122/115 146/117/115 138/98/115
o Cylinder.002_Cylinder.001
v 0.688153 0.627319 1.139664
v 0.688153 1.188264 1.139664
v 0.742870 1.188264 1.145054
v 0.742870 0.627319 1.145054
v 0.795485 1.188264 1.161014
v 0.795485 0.627319 1.161014
v 0.843975 1.188264 1.186933
v 0.843975 0.627319 1.186933
v 0.886477 1.188264 1.221813
v 0.886477 0.627319 1.221813
v 0.921357 1.188264 1.264315
v 0.921357 0.627319 1.264315
v 0.947276 1.188264 1.312805
v 0.947276 0.627319 1.312805
v 0.963236 1.188264 1.365420
v 0.963236 0.627319 1.365420
v 0.968625 1.188264 1.420137
v 0.968625 0.627319 1.420137
v 0.963236 1.188264 1.474854
v 0.963236 0.627319 1.474854
v 0.947276 1.188264 1.527469
v 0.947276 0.627319 1.527469
v 0.921357 1.188264 1.575959
v 0.921357 0.627319 1.575959
v 0.886477 1.188264 1.618461
v 0.886477 0.627319 1.618461
v 0.843975 1.188264 1.653341
v 0.843975 0.627319 1.653341
v 0.795485 1.188264 1.679260
v 0.795485 0.627319 1.679260
v 0.742870 1.188264 1.695220
v 0.742870 0.627319 1.695220
v 0.688153 1.188264 1.700609
v 0.688153 0.627319 1.700609
v 0.633435 1.188264 1.695220
v 0.633435 0.627319 1.695220
v 0.580821 1.188264 1.679260
v 0.580821 0.627319 1.679260
v 0.532331 1.188264 1.653341
v 0.532331 0.627319 1.653341
v 0.489829 1.188264 1.618461
v 0.489829 0.627319 1.618461
v 0.454948 1.188264 1.575959
v 0.454948 0.627319 1.575959
v 0.429030 1.188264 1.527469
v 0.429030 0.627319 1.527469
v 0.413070 1.188264 1.474854
v 0.413070 0.627319 1.474854
v 0.407680 1.188264 1.420137
v 0.407680 0.627319 1.420137
v 0.413070 1.188264 1.365419
v 0.413070 0.627319 1.365419
v 0.429030 1.188264 1.312804
v 0.429030 0.627319 1.312804
v 0.454949 1.188264 1.264315
v 0.454949 0.627319 1.264315
v 0.489829 1.188264 1.221813
v 0.489829 0.627319 1.221813
v 0.532331 1.188264 1.186932
v 0.532331 0.627319 1.186932
v 0.580821 1.188264 1.161014
v 0.580821 0.627319 1.161014
v 0.633436 1.188264 1.145054
v 0.633436 0.627319 1.145054
v 0.688153 0.627319 -1.167231
v 0.742870 0.627319 -1.172621
v 0.742870 1.188264 -1.172621
v 0.688153 1.188264 -1.167231
v 0.795485 0.627319 -1.188581
v 0.795485 1.188264 -1.188581
v 0.843975 0.627319 -1.214499
v 0.843975 1.188264 -1.214499
v 0.886477 0.627319 -1.249380
v 0.886477 1.188264 -1.249380
v 0.921357 0.627319 -1.291882
v 0.921357 1.188264 -1.291882
v 0.947276 0.627319 -1.340372
v 0.947276 1.188264 -1.340372
v 0.963236 0.627319 -1.392986
v 0.963236 1.188264 -1.392986
v 0.968625 0.627319 -1.447704
v 0.968625 1.188264 -1.447704
v 0.963236 0.627319 -1.502421
v 0.963236 1.188264 -1.502421
v 0.947276 0.627319 -1.555036
v 0.947276 1.188264 -1.555036
v 0.921357 0.627319 -1.603526
v 0.921357 1.188264 -1.603526
v 0.886477 0.627319 -1.646028
v 0.886477 1.188264 -1.646028
v 0.843975 0.627319 -1.680908
v 0.843975 1.188264 -1.680908
v 0.795485 0.627319 -1.706827
v 0.795485 1.188264 -1.706827
v 0.742870 0.627319 -1.722787
v 0.742870 1.188264 -1.722787
v 0.688153 0.627319 -1.728176
v 0.688153 1.188264 -1.728176
v 0.633435 0.627319 -1.722787
v 0.633435 1.188264 -1.722787
v 0.580821 0.627319 -1.706827
v 0.580821 1.188264 -1.706827
v 0.532331 0.627319 -1.680908
v 0.532331 1.188264 -1.680908
v 0.489829 0.627319 -1.646028
v 0.489829 1.188264 -1.646028
v 0.454948 0.627319 -1.603526
v 0.454948 1.188264 -1.603526
v 0.429030 0.627319 -1.555036
v 0.429030 1.188264 -1.555036
v 0.413070 0.627319 -1.502421
v 0.413070 1.188264 -1.502421
v 0.407680 0.627319 -1.447704
v 0.407680 1.188264 -1.447704
v 0.413070 0.627319 -1.392986
v 0.413070 1.188264 -1.392986
v 0.429030 0.627319 -1.340371
v 0.429030 1.188264 -1.340371
v 0.454949 0.627319 -1.291881
v 0.454949 1.188264 -1.291881
v 0.489829 0.627319 -1.249380
v 0.489829 1.188264 -1.249380
v 0.532331 0.627319 -1.214499
v 0.532331 1.188264 -1.214499
v 0.580821 0.627319 -1.188581
v 0.580821 1.188264 -1.188581
v 0.633436 1.188264 -1.172621
v 0.633436 0.627319 -1.172621
vt 0.0000 0.0000
vt 1.0000 0.0000
vt 1.0000 1.0000
vt 0.0000 1.0000
vt 0.0000 0.0000
vt 1.0000 0.0000
vt 1.0000 1.0000
vt 0.0000 1.0000
vt 0.0000 0.0000
vt 1.0000 0.0000
vt 1.0000 1.0000
vt 0.0000 1.0000
vt 0.0000 0.0000
vt 1.0000 0.0000
vt 1.0000 1.0000
vt 0.0000 1.0000
vt 0.0000 0.0000
vt 1.0000 0.0000
vt 1.0000 1.0000
vt 0.0000 1.0000
vt 0.0000 0.0000
vt 1.0000 0.0000
vt 1.0000 1.0000
vt 0.0000 1.0000
vt 0.0000 0.0000
vt 1.0000 0.0000
vt 1.0000 1.0000
vt 0.0000 1.0000
vt 0.0000 0.0000
vt 1.0000 0.0000
vt 1.0000 1.0000
vt 0.0000 1.0000
vt 0.0000 0.0000
vt 1.0000 0.0000
vt 1.0000 1.0000
vt 0.0000 1.0000
vt 0.0000 0.0000
vt 1.0000 0.0000
vt 1.0000 1.0000
vt 0.0000 1.0000
vt 0.0000 0.0000
vt 1.0000 0.0000
vt 1.0000 1.0000
vt 0.0000 1.0000
vt 0.0000 0.0000
vt 1.0000 0.0000
vt 1.0000 1.0000
vt 0.0000 1.0000
vt 0.0000 0.0000
vt 1.0000 0.0000
vt 1.0000 1.0000
vt 0.0000 1.0000
vt 0.0000 0.0000
vt 1.0000 0.0000
vt 1.0000 1.0000
vt 0.0000 1.0000
vt 0.0000 0.0000
vt 1.0000 0.0000
vt 1.0000 1.0000
vt 0.0000 1.0000
vt 0.0000 0.0000
vt 1.0000 0.0000
vt 1.0000 1.0000
vt 0.0000 1.0000
vt 0.0000 0.0000
vt 1.0000 0.0000
vt 1.0000 1.0000
vt 0.0000 1.0000
vt 0.0000 0.0000
vt 1.0000 0.0000
vt 1.0000 1.0000
vt 0.0000 1.0000
vt 0.0000 0.0000
vt 1.0000 0.0000
vt 1.0000 1.0000
vt 0.0000 1.0000
vt 0.0000 0.0000
vt 1.0000 0.0000
vt 1.0000 1.0000
vt 0.0000 1.0000
vt 0.0000 0.0000
vt 1.0000 0.0000
vt 1.0000 1.0000
vt 0.0000 1.0000
vt 0.0000 0.0000
vt 1.0000 0.0000
vt 1.0000 1.0000
vt 0.0000 1.0000
vt 0.0000 0.0000
vt 1.0000 0.0000
vt 1.0000 1.0000
vt 0.0000 1.0000
vt 0.0000 0.0000
vt 1.0000 0.0000
vt 1.0000 1.0000
vt 0.0000 1.0000
vt 0.0000 0.0000
vt 1.0000 0.0000
vt 1.0000 1.0000
vt 0.0000 1.0000
vt 0.0000 0.0000
vt 1.0000 0.0000
vt 1.0000 1.0000
vt 0.0000 1.0000
vt 0.0000 0.0000
vt 1.0000 0.0000
vt 1.0000 1.0000
vt 0.0000 1.0000
vt 0.0000 0.0000
vt 1.0000 0.0000
vt 1.0000 1.0000
vt 0.0000 1.0000
vt 0.0000 0.0000
vt 1.0000 0.0000
vt 1.0000 1.0000
vt 0.0000 1.0000
vt 0.0000 0.0000
vt 1.0000 0.0000
vt 1.0000 1.0000
vt 0.0000 1.0000
vt 0.5000 1.0000
vt 0.5975 0.9904
vt 0.6913 0.9619
vt 0.7778 0.9157
vt 0.8536 0.8536
vt 0.9157 0.7778
vt 0.9619 0.6913
vt 0.9904 0.5975
vt 1.0000 0.5000
vt 0.9904 0.4025
vt 0.9619 0.3087
vt 0.9157 0.2222
vt 0.8536 0.1464
vt 0.7778 0.0843
vt 0.6913 0.0381
vt 0.5975 0.0096
vt 0.5000 0.0000
vt 0.4025 0.0096
vt 0.3087 0.0381
vt 0.2222 0.0843
vt 0.1464 0.1464
vt 0.0843 0.2222
vt 0.0381 0.3087
vt 0.0096 0.4025
vt 0.0000 0.5000
vt 0.0096 0.5975
vt 0.0381 0.6913
vt 0.0843 0.7778
vt 0.1464 0.8536
vt 0.2222 0.9157
vt 0.3087 0.9619
vt 0.4025 0.9904
vt 0.0000 0.0000
vt 1.0000 0.0000
vt 1.0000 1.0000
vt 0.0000 1.0000
vt 0.0000 0.0000
vt 1.0000 0.0000
vt 1.0000 1.0000
vt 0.0000 1.0000
vt 0.5000 1.0000
vt 0.5975 0.9904
vt 0.6913 0.9619
vt 0.7778 0.9157
vt 0.8536 0.8536
vt 0.9157 0.7778
vt 0.9619 0.6913
vt 0.9904 0.5975
vt 1.0000 0.5000
vt 0.9904 0.4025
vt 0.9619 0.3087
vt 0.9157 0.2222
vt 0.8536 0.1464
vt 0.7778 0.0843
vt 0.6913 0.0381
vt 0.5975 0.0096
vt 0.5000 0.0000
vt 0.4025 0.0096
vt 0.3087 0.0381
vt 0.2222 0.0843
vt 0.1464 0.1464
vt 0.0843 0.2222
vt 0.0381 0.3087
vt 0.0096 0.4025
vt 0.0000 0.5000
vt 0.0096 0.5975
vt 0.0381 0.6913
vt 0.0843 0.7778
vt 0.1464 0.8536
vt 0.2222 0.9157
vt 0.3087 0.9619
vt 0.4025 0.9904
vt 0.0000 0.0000
vt 1.0000 0.0000
vt 1.0000 1.0000
vt 0.0000 1.0000
vt 0.0000 0.0000
vt 1.0000 0.0000
vt 1.0000 1.0000
vt 0.0000 1.0000
vt 0.0000 0.0000
vt 1.0000 0.0000
vt 1.0000 1.0000
vt 0.0000 1.0000
vt 0.0000 0.0000
vt 1.0000 0.0000
vt 1.0000 1.0000
vt 0.0000 1.0000
vt 0.0000 0.0000
vt 1.0000 0.0000
vt 1.0000 1.0000
vt 0.0000 1.0000
vt 0.0000 0.0000
vt 1.0000 0.0000
vt 1.0000 1.0000
vt 0.0000 1.0000
vt 0.0000 0.0000
vt 1.0000 0.0000
vt 1.0000 1.0000
vt 0.0000 1.0000
vt 0.0000 0.0000
vt 1.0000 0.0000
vt 1.0000 1.0000
vt 0.0000 1.0000
vt 0.0000 0.0000
vt 1.0000 0.0000
vt 1.0000 1.0000
vt 0.0000 1.0000
vt 0.0000 0.0000
vt 1.0000 0.0000
vt 1.0000 1.0000
vt 0.0000 1.0000
vt 0.0000 0.0000
vt 1.0000 0.0000
vt 1.0000 1.0000
vt 0.0000 1.0000
vt 0.0000 0.0000
vt 1.0000 0.0000
vt 1.0000 1.0000
vt 0.0000 1.0000
vt 0.0000 0.0000
vt 1.0000 0.0000
vt 1.0000 1.0000
vt 0.0000 1.0000
vt 0.0000 0.0000
vt 1.0000 0.0000
vt 1.0000 1.0000
vt 0.0000 1.0000
vt 0.0000 0.0000
vt 1.0000 0.0000
vt 1.0000 1.0000
vt 0.0000 1.0000
vt 0.0000 0.0000
vt 1.0000 0.0000
vt 1.0000 1.0000
vt 0.0000 1.0000
vt 0.0000 0.0000
vt 1.0000 0.0000
vt 1.0000 1.0000
vt 0.0000 1.0000
vt 0.0000 0.0000
vt 1.0000 0.0000
vt 1.0000 1.0000
vt 0.0000 1.0000
vt 0.0000 0.0000
vt 1.0000 0.0000
vt 1.0000 1.0000
vt 0.0000 1.0000
vt 0.0000 0.0000
vt 1.0000 0.0000
vt 1.0000 1.0000
vt 0.0000 1.0000
vt 0.0000 0.0000
vt 1.0000 0.0000
vt 1.0000 1.0000
vt 0.0000 1.0000
vt 0.0000 0.0000
vt 1.0000 0.0000
vt 1.0000 1.0000
vt 0.0000 1.0000
vt 0.0000 0.0000
vt 1.0000 0.0000
vt 1.0000 1.0000
vt 0.0000 1.0000
vt 0.0000 0.0000
vt 1.0000 0.0000
vt 1.0000 1.0000
vt 0.0000 1.0000
vt 0.0000 0.0000
vt 1.0000 0.0000
vt 1.0000 1.0000
vt 0.0000 1.0000
vt 0.0000 0.0000
vt 1.0000 0.0000
vt 1.0000 1.0000
vt 0.0000 1.0000
vt 0.0000 0.0000
vt 1.0000 0.0000
vt 1.0000 1.0000
vt 0.0000 1.0000
vt 0.0000 0.0000
vt 1.0000 0.0000
vt 1.0000 1.0000
vt 0.0000 1.0000
vt 0.0000 0.0000
vt 1.0000 0.0000
vt 1.0000 1.0000
vt 0.0000 1.0000
vt 0.0000 0.0000
vt 1.0000 0.0000
vt 1.0000 1.0000
vt 0.0000 1.0000
vt 0.5000 1.0000
vt 0.5975 0.9904
vt 0.6913 0.9619
vt 0.7778 0.9157
vt 0.8536 0.8536
vt 0.9157 0.7778
vt 0.9619 0.6913
vt 0.9904 0.5975
vt 1.0000 0.5000
vt 0.9904 0.4025
vt 0.9619 0.3087
vt 0.9157 0.2222
vt 0.8536 0.1464
vt 0.7778 0.0843
vt 0.6913 0.0381
vt 0.5975 0.0096
vt 0.5000 0.0000
vt 0.4025 0.0096
vt 0.3087 0.0381
vt 0.2222 0.0843
vt 0.1464 0.1464
vt 0.0843 0.2222
vt 0.0381 0.3087
vt 0.0096 0.4025
vt 0.0000 0.5000
vt 0.0096 0.5975
vt 0.0381 0.6913
vt 0.0843 0.7778
vt 0.1464 0.8536
vt 0.2222 0.9157
vt 0.3087 0.9619
vt 0.4025 0.9904
vt 0.0000 0.0000
vt 1.0000 0.0000
vt 1.0000 1.0000
vt 0.0000 1.0000
vt 0.0000 0.0000
vt 1.0000 0.0000
vt 1.0000 1.0000
vt 0.0000 1.0000
vt 0.5000 1.0000
vt 0.5975 0.9904
vt 0.6913 0.9619
vt 0.7778 0.9157
vt 0.8536 0.8536
vt 0.9157 0.7778
vt 0.9619 0.6913
vt 0.9904 0.5975
vt 1.0000 0.5000
vt 0.9904 0.4025
vt 0.9619 0.3087
vt 0.9157 0.2222
vt 0.8536 0.1464
vt 0.7778 0.0843
vt 0.6913 0.0381
vt 0.5975 0.0096
vt 0.5000 0.0000
vt 0.4025 0.0096
vt 0.3087 0.0381
vt 0.2222 0.0843
vt 0.1464 0.1464
vt 0.0843 0.2222
vt 0.0381 0.3087
vt 0.0096 0.4025
vt 0.0000 0.5000
vt 0.0096 0.5975
vt 0.0381 0.6913
vt 0.0843 0.7778
vt 0.1464 0.8536
vt 0.2222 0.9157
vt 0.3087 0.9619
vt 0.4025 0.9904
vn 0.0980 0.0000 -0.9952
vn 0.2903 0.0000 -0.9569
vn 0.4714 0.0000 -0.8819
vn 0.6344 0.0000 -0.7730
vn 0.7730 0.0000 -0.6344
vn 0.8819 0.0000 -0.4714
vn 0.9569 0.0000 -0.2903
vn 0.9952 -0.0000 -0.0980
vn 0.9952 -0.0000 0.0980
vn 0.9569 -0.0000 0.2903
vn 0.8819 -0.0000 0.4714
vn 0.7730 -0.0000 0.6344
vn 0.6344 -0.0000 0.7730
vn 0.4714 -0.0000 0.8819
vn 0.2903 -0.0000 0.9569
vn 0.0980 -0.0000 0.9952
vn -0.0980 -0.0000 0.9952
vn -0.2903 -0.0000 0.9569
vn -0.4714 -0.0000 0.8819
vn -0.6344 -0.0000 0.7730
vn -0.7730 -0.0000 0.6344
vn -0.8819 -0.0000 0.4714
vn -0.9569 -0.0000 0.2903
vn -0.9952 0.0000 0.0980
vn -0.9952 0.0000 -0.0980
vn -0.9569 0.0000 -0.2903
vn -0.8819 0.0000 -0.4714
vn -0.7730 0.0000 -0.6344
vn -0.6344 0.0000 -0.7730
vn -0.4714 0.0000 -0.8819
vn 0.0000 1.0000 0.0000
vn -0.2903 0.0000 -0.9569
vn -0.0980 0.0000 -0.9952
vn 0.0000 -1.0000 -0.0000
usemtl Material.009
s 1
f 147/123/117 148/124/117 149/125/117 150/126/117
f 150/127/118 149/128/118 151/129/118 152/130/118
f 152/131/119 151/132/119 153/133/119 154/134/119
f 154/135/120 153/136/120 155/137/120 156/138/120
f 156/139/121 155/140/121 157/141/121 158/142/121
f 158/143/122 157/144/122 159/145/122 160/146/122
f 160/147/123 159/148/123 161/149/123 162/150/123
f 162/151/124 161/152/124 163/153/124 164/154/124
f 164/155/125 163/156/125 165/157/125 166/158/125
f 166/159/126 165/160/126 167/161/126 168/162/126
f 168/163/127 167/164/127 169/165/127 170/166/127
f 170/167/128 169/168/128 171/169/128 172/170/128
f 172/171/129 171/172/129 173/173/129 174/174/129
f 174/175/130 173/176/130 175/177/130 176/178/130
f 176/179/131 175/180/131 177/181/131 178/182/131
f 178/183/132 177/184/132 179/185/132 180/186/132
f 180/187/133 179/188/133 181/189/133 182/190/133
f 182/191/134 181/192/134 183/193/134 184/194/134
f 184/195/135 183/196/135 185/197/135 186/198/135
f 186/199/136 185/200/136 187/201/136 188/202/136
f 188/203/137 187/204/137 189/205/137 190/206/137
f 190/207/138 189/208/138 191/209/138 192/210/138
f 192/211/139 191/212/139 193/213/139 194/214/139
f 194/215/140 193/216/140 195/217/140 196/218/140
f 196/219/141 195/220/141 197/221/141 198/222/141
f 198/223/142 197/224/142 199/225/142 200/226/142
f 200/227/143 199/228/143 201/229/143 202/230/143
f 202/231/144 201/232/144 203/233/144 204/234/144
f 204/235/145 203/236/145 205/237/145 206/238/145
f 206/239/146 205/240/146 207/241/146 208/242/146
f 149/243/147 148/244/147 209/245/147 207/246/147 205/247/147 203/248/147 201/249/147 199/250/147 197/251/147 195/252/147 193/253/147 191/254/147 189/255/147 187/256/147 185/257/147 183/258/147 181/259/147 179/260/147 177/261/147 175/262/147 173/263/147 171/264/147 169/265/147 167/266/147 165/267/147 163/268/147 161/269/147 159/270/147 157/271/147 155/272/147 153/273/147 151/274/147
f 208/275/148 207/276/148 209/277/148 210/278/148
f 210/279/149 209/280/149 148/281/149 147/282/149
f 147/283/150 150/284/150 152/285/150 154/286/150 156/287/150 158/288/150 160/289/150 162/290/150 164/291/150 166/292/150 168/293/150 170/294/150 172/295/150 174/296/150 176/297/150 178/298/150 180/299/150 182/300/150 184/301/150 186/302/150 188/303/150 190/304/150 192/305/150 194/306/150 196/307/150 198/308/150 200/309/150 202/310/150 204/311/150 206/312/150 208/313/150 210/314/150
f 211/315/132 212/316/132 213/317/132 214/318/132
f 212/319/131 215/320/131 216/321/131 213/322/131
f 215/323/130 217/324/130 218/325/130 216/326/130
f 217/327/129 219/328/129 220/329/129 218/330/129
f 219/331/128 221/332/128 222/333/128 220/334/128
f 221/335/127 223/336/127 224/337/127 222/338/127
f 223/339/126 225/340/126 226/341/126 224/342/126
f 225/343/125 227/344/125 228/345/125 226/346/125
f 227/347/124 229/348/124 230/349/124 228/350/124
f 229/351/123 231/352/123 232/353/123 230/354/123
f 231/355/122 233/356/122 234/357/122 232/358/122
f 233/359/121 235/360/121 236/361/121 234/362/121
f 235/363/120 237/364/120 238/365/120 236/366/120
f 237/367/119 239/368/119 240/369/119 238/370/119
f 239/371/118 241/372/118 242/373/118 240/374/118
f 241/375/117 243/376/117 244/377/117 242/378/117
f 243/379/149 245/380/149 246/381/149 244/382/149
f 245/383/148 247/384/148 248/385/148 246/386/148
f 247/387/146 249/388/146 250/389/146 248/390/146
f 249/391/145 251/392/145 252/393/145 250/394/145
f 251/395/144 253/396/144 254/397/144 252/398/144
f 253/399/143 255/400/143 256/401/143 254/402/143
f 255/403/142 257/404/142 258/405/142 256/406/142
f 257/407/141 259/408/141 260/409/141 258/410/141
f 259/411/140 261/412/140 262/413/140 260/414/140
f 261/415/139 263/416/139 264/417/139 262/418/139
f 263/419/138 265/420/138 266/421/138 264/422/138
f 265/423/137 267/424/137 268/425/137 266/426/137
f 267/427/136 269/428/136 270/429/136 268/430/136
f 269/431/135 271/432/135 272/433/135 270/434/135
f 213/435/147 216/436/147 218/437/147 220/438/147 222/439/147 224/440/147 226/441/147 228/442/147 230/443/147 232/444/147 234/445/147 236/446/147 238/447/147 240/448/147 242/449/147 244/450/147 246/451/147 248/452/147 250/453/147 252/454/147 254/455/147 256/456/147 258/457/147 260/458/147 262/459/147 264/460/147 266/461/147 268/462/147 270/463/147 272/464/147 273/465/147 214/466/147
f 271/467/134 274/468/134 273/469/134 272/470/134
f 274/471/133 211/472/133 214/473/133 273/474/133
f 211/475/150 274/476/150 271/477/150 269/478/150 267/479/150 265/480/150 263/481/150 261/482/150 259/483/150 257/484/150 255/485/150 253/486/150 251/487/150 249/488/150 247/489/150 245/490/150 243/491/150 241/492/150 239/493/150 237/494/150 235/495/150 233/496/150 231/497/150 229/498/150 227/499/150 225/500/150 223/501/150 221/502/150 219/503/150 217/504/150 215/505/150 212/506/150
o Cube.003
v -3.162819 0.999999 3.668184
v -3.162819 1.000000 1.668184
v -3.162819 1.306598 1.668184
v -3.162819 1.306597 3.668184
v -1.162819 0.816525 1.870173
v -1.162819 1.123123 1.870173
v -1.162819 0.999999 3.668184
v -1.162819 1.306597 3.668184
v -3.162819 1.000001 -3.668184
v -3.162819 1.306599 -3.668184
v -3.162819 1.306598 -1.668184
v -3.162819 1.000000 -1.668184
v -1.162819 1.123123 -1.870173
v -1.162819 0.816525 -1.870173
v -1.162819 1.306599 -3.668184
v -1.162819 1.000001 -3.668184
vt 0.0000 0.0000
vt 1.0000 0.0000
vt 1.0000 1.0000
vt 0.0000 1.0000
vt 0.0000 0.0000
vt 1.0000 0.0000
vt 1.0000 1.0000
vt 0.0000 1.0000
vt 0.0000 0.0000
vt 1.0000 0.0000
vt 1.0000 1.0000
vt 0.0000 1.0000
vt 0.0000 0.0000
vt 1.0000 0.0000
vt 1.0000 1.0000
vt 0.0000 1.0000
vt 0.0000 0.0000
vt 1.0000 0.0000
vt 1.0000 1.0000
vt 0.0000 1.0000
vt 0.0000 0.0000
vt 1.0000 0.0000
vt 1.0000 1.0000
vt 0.0000 1.0000
vt 0.0000 0.0000
vt 1.0000 0.0000
vt 1.0000 1.0000
vt 0.0000 1.0000
vt 0.0000 0.0000
vt 1.0000 0.0000
vt 1.0000 1.0000
vt 0.0000 1.0000
vt 0.0000 0.0000
vt 1.0000 0.0000
vt 1.0000 1.0000
vt 0.0000 1.0000
vt 0.0000 0.0000
vt 0.0000 1.0000
vt 1.0000 0.0000
vt 1.0000 1.0000
vn 1.0000 0.0000 0.0000
vn -0.1005 -0.0000 0.9949
vn -1.0000 0.0000 0.0000
vn 0.0000 0.0000 -1.0000
vn -0.0482 -0.9977 0.0482
vn 0.0482 0.9977 -0.0482
vn -0.1005 0.0000 -0.9949
vn 0.0000 0.0000 1.0000
vn -0.0482 -0.9977 -0.0482
vn 0.0482 0.9977 0.0482
usemtl Material.011
s 1
f 275/507/151 276/508/151 277/509/151 278/510/151
f 276/511/152 279/512/152 280/513/152 277/514/152
f 279/515/153 281/516/153 282/517/153 280/518/153
f 281/519/154 275/520/154 278/521/154 282/522/154
f 278/523/155 277/524/155 280/513/155 282/522/155
f 281/519/156 279/512/156 276/525/156 275/526/156
f 283/527/151 284/528/151 285/529/151 286/530/151
f 286/531/157 285/532/157 287/533/157 288/534/157
f 288/535/153 287/536/153 289/537/153 290/538/153
f 290/539/158 289/540/158 284/541/158 283/542/158
f 284/543/159 289/540/159 287/533/159 285/544/159
f 290/539/160 283/545/160 286/546/160 288/534/160
o Cube.009_Cube.011
v 0.290910 1.007871 1.015419
v 0.290910 1.007871 -0.984581
v 4.160565 -0.228679 -0.433795
v 4.160565 -0.228679 0.464633
v 2.290910 1.007871 -0.984581
v 5.047859 -0.087670 -0.433795
v 2.290910 1.007871 1.015419
v 5.047859 -0.087670 0.464633
v 4.178147 -0.339310 0.464633
v 5.065440 -0.198300 0.464633
v 5.065440 -0.198300 -0.433795
v 4.842739 -0.233692 0.239137
v 4.842739 -0.233692 -0.208299
v 4.178147 -0.339310 -0.433795
v 4.865344 -0.375931 0.239137
v 4.865344 -0.375931 -0.208299
v 4.400848 -0.303918 -0.208299
v 4.400848 -0.303918 0.239137
v 4.423453 -0.446157 0.239137
v 4.423453 -0.446157 -0.208299
vt 0.0000 0.0000
vt 1.0000 0.0000
vt 1.0000 1.0000
vt 0.0000 1.0000
vt 0.0000 0.0000
vt 1.0000 0.0000
vt 1.0000 1.0000
vt 0.0000 1.0000
vt 0.0000 0.0000
vt 1.0000 0.0000
vt 1.0000 1.0000
vt 0.0000 1.0000
vt 0.0000 0.0000
vt 1.0000 0.0000
vt 1.0000 1.0000
vt 0.0000 1.0000
vt 0.0000 0.0000
vt 1.0000 0.0000
vt 1.0000 1.0000
vt 0.0000 1.0000
vt 1.0000 1.0000
vt 0.0000 1.0000
vt 0.0000 0.0000
vt 1.0000 0.0000
vt 1.0000 1.0000
vt 0.0000 1.0000
vt 0.0000 0.0000
vt 1.0000 0.0000
vt 1.0000 1.0000
vt 0.0000 1.0000
vt 0.0000 0.0000
vt 1.0000 0.0000
vt 1.0000 1.0000
vt 0.0000 1.0000
vt 0.0000 0.0000
vt 1.0000 0.0000
vt 1.0000 1.0000
vt 0.0000 1.0000
vt 0.0000 0.0000
vt 1.0000 0.0000
vt 1.0000 1.0000
vt 0.0000 1.0000
vt 0.0000 0.0000
vt 1.0000 0.0000
vt 1.0000 1.0000
vt 0.0000 1.0000
vt 0.0000 0.0000
vt 1.0000 0.0000
vt 1.0000 1.0000
vt 0.0000 1.0000
vt 0.0000 0.0000
vt 1.0000 0.0000
vt 1.0000 1.0000
vt 0.0000 1.0000
vt 0.0000 0.0000
vt 1.0000 0.0000
vt 1.0000 1.0000
vt 0.0000 1.0000
vt 0.0000 0.0000
vt 1.0000 0.0000
vt 1.0000 1.0000
vt 0.0000 1.0000
vt 0.0000 0.0000
vt 1.0000 0.0000
vt 1.0000 1.0000
vt 0.0000 0.0000
vt 1.0000 0.0000
vt 0.0000 1.0000
vn -0.3044 -0.9525 -0.0000
vn 0.0187 -0.3831 -0.9235
vn 0.3693 0.9293 0.0000
vn 0.0187 -0.3831 0.9235
vn 0.0000 -0.0000 1.0000
vn 0.0000 1.0000 0.0000
vn 0.1570 -0.9876 -0.0000
vn 0.9876 0.1569 0.0000
vn -0.9876 -0.1570 -0.0000
vn 0.0000 0.0000 -1.0000
vn 0.9876 0.1570 0.0000
usemtl Material.007
s 1
f 291/547/161 292/548/161 293/549/161 294/550/161
f 292/551/162 295/552/162 296/553/162 293/554/162
f 295/555/163 297/556/163 298/557/163 296/558/163
f 297/559/164 291/560/164 294/561/164 298/562/164
f 298/563/165 294/564/165 299/565/165 300/566/165
f 297/559/166 295/552/166 292/567/166 291/568/166
f 301/569/167 300/570/167 302/571/167 303/572/167
f 296/573/168 298/574/168 300/575/168 301/576/168
f 294/577/169 293/578/169 304/579/169 299/580/169
f 293/581/170 296/582/170 301/583/170 304/584/170
f 303/585/171 302/586/171 305/587/171 306/588/171
f 299/589/167 304/590/167 307/591/167 308/592/167
f 300/593/167 299/594/167 308/595/167 302/596/167
f 304/597/167 301/598/167 303/599/167 307/600/167
f 309/601/167 310/602/167 306/603/167 305/604/167
f 308/605/169 307/606/169 310/607/169 309/608/169
f 302/609/165 308/610/165 309/611/165 305/604/165
f 307/612/170 303/613/170 306/603/170 310/614/170
o Cube.002
v -1.000000 0.968063 3.153127
v -1.000000 0.968064 2.153127
v -1.720423 0.508374 2.153127
v -1.000000 0.508373 3.153127
v 0.000000 0.968064 2.153127
v 1.000000 0.968064 2.153127
v 0.279577 0.508374 2.153127
v 0.000000 0.508374 2.153127
v 1.000000 0.968063 3.153127
v 1.000000 0.968063 4.153127
v 0.279577 0.508373 4.153127
v 1.000000 0.508373 3.153127
v 0.000000 0.968063 4.153127
v -1.000000 0.968063 4.153127
v -1.720423 0.508373 4.153127
v 0.000000 0.508373 4.153127
v 0.000000 0.508373 3.153127
v 0.000000 1.427754 3.153127
v 0.000000 1.427754 2.153127
v -1.720423 1.427754 2.153127
v -1.000000 1.427754 3.153127
v 0.000000 1.427753 4.153127
v -1.720423 1.427753 4.153127
v 0.279577 1.427753 4.153127
v 1.000000 1.427754 3.153127
v 0.279577 1.427754 2.153127
v -1.000000 0.968065 -3.153127
v -1.000000 0.508375 -3.153127
v -1.720423 0.508374 -2.153127
v -1.000000 0.968064 -2.153127
v 0.000000 0.968064 -2.153127
v 0.000000 0.508374 -2.153127
v 0.279577 0.508374 -2.153127
v 1.000000 0.968064 -2.153127
v 1.000000 0.968065 -3.153127
v 1.000000 0.508375 -3.153127
v 0.279577 0.508375 -4.153127
v 1.000000 0.968065 -4.153127
v 0.000000 0.968065 -4.153127
v 0.000000 0.508375 -4.153127
v -1.720423 0.508375 -4.153127
v -1.000000 0.968065 -4.153127
v 0.000000 0.508375 -3.153127
v 0.000000 1.427755 -3.153127
v -1.000000 1.427755 -3.153127
v -1.720423 1.427754 -2.153127
v 0.000000 1.427754 -2.153127
v 0.000000 1.427755 -4.153127
v -1.720423 1.427755 -4.153127
v 0.279577 1.427755 -4.153127
v 1.000000 1.427755 -3.153127
v 0.279577 1.427754 -2.153127
vt 0.0000 0.0000
vt 1.0000 0.0000
vt 1.0000 1.0000
vt 0.0000 1.0000
vt 0.0000 0.0000
vt 1.0000 0.0000
vt 1.0000 1.0000
vt 0.0000 1.0000
vt 0.0000 0.0000
vt 1.0000 0.0000
vt 1.0000 1.0000
vt 0.0000 1.0000
vt 0.0000 0.0000
vt 1.0000 0.0000
vt 1.0000 1.0000
vt 0.0000 1.0000
vt 0.0000 0.0000
vt 1.0000 0.0000
vt 0.0000 0.0000
vt 1.0000 0.0000
vt 1.0000 1.0000
vt 0.0000 1.0000
vt 0.0000 0.0000
vt 1.0000 0.0000
vt 1.0000 1.0000
vt 0.0000 1.0000
vt 0.0000 0.0000
vt 1.0000 0.0000
vt 1.0000 1.0000
vt 0.0000 1.0000
vt 0.0000 0.0000
vt 1.0000 0.0000
vt 1.0000 1.0000
vt 0.0000 1.0000
vt 0.0000 0.0000
vt 1.0000 0.0000
vt 1.0000 1.0000
vt 0.0000 1.0000
vt 0.0000 0.0000
vt 1.0000 0.0000
vt 1.0000 1.0000
vt 0.0000 0.0000
vt 1.0000 0.0000
vt 1.0000 1.0000
vt 0.0000 1.0000
vt 0.0000 0.0000
vt 1.0000 0.0000
vt 1.0000 1.0000
vt 1.0000 0.0000
vt 1.0000 1.0000
vt 0.0000 1.0000
vt 1.0000 0.0000
vt 1.0000 1.0000
vt 0.0000 1.0000
vt 0.0000 0.0000
vt 1.0000 0.0000
vt 0.0000 1.0000
vt 0.0000 0.0000
vt 1.0000 1.0000
vt 0.0000 1.0000
vt 1.0000 0.0000
vt 1.0000 1.0000
vt 0.0000 1.0000
vt 0.0000 0.0000
vt 1.0000 0.0000
vt 0.0000 1.0000
vt 0.0000 0.0000
vt 1.0000 1.0000
vt 0.0000 1.0000
vt 0.0000 0.0000
vt 1.0000 1.0000
vt 0.0000 1.0000
vt 0.0000 0.0000
vt 1.0000 0.0000
vt 1.0000 1.0000
vt 0.0000 1.0000
vt 0.0000 0.0000
vt 1.0000 0.0000
vt 1.0000 1.0000
vt 0.0000 1.0000
vt 0.0000 0.0000
vt 1.0000 0.0000
vt 1.0000 1.0000
vt 0.0000 1.0000
vt 0.0000 0.0000
vt 1.0000 0.0000
vt 1.0000 1.0000
vt 0.0000 1.0000
vt 0.0000 0.0000
vt 1.0000 0.0000
vt 1.0000 1.0000
vt 0.0000 1.0000
vt 0.0000 0.0000
vt 1.0000 0.0000
vt 1.0000 1.0000
vt 0.0000 1.0000
vt 0.0000 0.0000
vt 1.0000 0.0000
vt 1.0000 1.0000
vt 0.0000 1.0000
vt 0.0000 0.0000
vt 0.0000 1.0000
vt 0.0000 0.0000
vt 1.0000 0.0000
vt 1.0000 1.0000
vt 0.0000 1.0000
vt 0.0000 0.0000
vt 1.0000 0.0000
vt 1.0000 1.0000
vt 0.0000 1.0000
vt 0.0000 0.0000
vt 1.0000 0.0000
vt 1.0000 1.0000
vt 0.0000 1.0000
vt 0.0000 0.0000
vt 1.0000 0.0000
vt 1.0000 1.0000
vt 0.0000 1.0000
vt 0.0000 0.0000
vt 1.0000 0.0000
vt 1.0000 1.0000
vt 0.0000 1.0000
vt 0.0000 0.0000
vt 1.0000 1.0000
vt 0.0000 1.0000
vt 0.0000 0.0000
vt 1.0000 0.0000
vt 1.0000 1.0000
vt 0.0000 1.0000
vt 0.0000 0.0000
vt 1.0000 1.0000
vt 0.0000 1.0000
vt 1.0000 0.0000
vt 1.0000 1.0000
vt 0.0000 1.0000
vt 1.0000 0.0000
vt 1.0000 1.0000
vt 0.0000 1.0000
vt 0.0000 0.0000
vt 1.0000 0.0000
vt 0.0000 1.0000
vt 0.0000 0.0000
vt 1.0000 0.0000
vt 1.0000 1.0000
vt 1.0000 0.0000
vt 1.0000 1.0000
vt 0.0000 1.0000
vt 0.0000 0.0000
vt 1.0000 0.0000
vt 0.0000 1.0000
vt 0.0000 0.0000
vt 1.0000 0.0000
vt 1.0000 1.0000
vt 0.0000 0.0000
vt 1.0000 0.0000
vt 1.0000 1.0000
vt 0.0000 0.0000
vt 1.0000 0.0000
vt 1.0000 1.0000
vt 0.0000 1.0000
vt 0.0000 0.0000
vt 1.0000 0.0000
vt 1.0000 1.0000
vt 0.0000 1.0000
vt 0.0000 0.0000
vt 1.0000 0.0000
vt 1.0000 1.0000
vt 0.0000 1.0000
vn -0.7573 0.5934 0.2728
vn 0.0000 0.0000 -1.0000
vn 0.7573 -0.5934 0.2728
vn 0.0000 0.0000 1.0000
vn 0.0000 -1.0000 -0.0000
vn 0.0000 1.0000 0.0000
vn 0.7573 -0.5934 -0.2728
vn 0.7573 0.5934 -0.2728
vn 0.7573 0.5934 0.2728
vn -0.7573 0.5934 -0.2728
vn -0.7573 -0.5934 -0.2728
vn -0.7573 -0.5934 0.2728
usemtl Material.008
s 1
f 311/615/172 312/616/172 313/617/172 314/618/172
f 315/619/173 316/620/173 317/621/173 318/622/173
f 319/623/174 320/624/174 321/625/174 322/626/174
f 323/627/175 324/628/175 325/629/175 326/630/175
f 327/631/176 318/632/176 317/621/176 322/626/176
f 328/633/177 329/634/177 330/635/177 331/636/177
f 332/637/177 328/638/177 331/639/177 333/640/177
f 334/641/177 335/642/177 328/643/177 332/644/177
f 335/645/177 336/646/177 329/647/177 328/648/177
f 326/649/176 327/650/176 322/651/176 321/652/176
f 325/653/176 314/654/176 327/655/176 326/630/176
f 314/656/176 313/657/176 318/658/176 327/659/176
f 320/660/175 323/661/175 326/662/175 321/652/175
f 334/641/175 332/663/175 323/664/175 320/665/175
f 332/637/175 333/666/175 324/667/175 323/668/175
f 316/669/178 319/670/178 322/651/178 317/671/178
f 336/672/179 335/642/179 319/673/179 316/674/179
f 335/645/180 334/675/180 320/676/180 319/677/180
f 312/678/173 315/679/173 318/658/173 313/680/173
f 330/681/173 329/634/173 315/682/173 312/683/173
f 329/684/173 336/646/173 316/685/173 315/686/173
f 324/687/181 311/688/181 314/689/181 325/690/181
f 333/691/182 331/692/182 311/693/182 324/694/182
f 331/695/183 330/696/183 312/697/183 311/698/183
f 337/699/181 338/700/181 339/701/181 340/702/181
f 341/703/175 342/704/175 343/705/175 344/706/175
f 345/707/178 346/708/178 347/709/178 348/710/178
f 349/711/173 350/712/173 351/713/173 352/714/173
f 353/715/176 346/708/176 343/705/176 342/716/176
f 354/717/177 355/718/177 356/719/177 357/720/177
f 358/721/177 359/722/177 355/723/177 354/724/177
f 360/725/177 358/726/177 354/727/177 361/728/177
f 361/729/177 354/730/177 357/731/177 362/732/177
f 350/733/176 347/734/176 346/735/176 353/736/176
f 351/737/176 350/712/176 353/738/176 338/739/176
f 338/740/176 353/741/176 342/742/176 339/743/176
f 348/744/173 347/734/173 350/745/173 349/746/173
f 360/725/173 348/747/173 349/748/173 358/749/173
f 358/721/173 349/750/173 352/751/173 359/752/173
f 344/753/174 343/754/174 346/735/174 345/755/174
f 362/756/180 344/757/180 345/758/180 361/728/180
f 361/729/179 345/759/179 348/760/179 360/761/179
f 340/762/175 339/763/175 342/742/175 341/764/175
f 356/765/175 340/766/175 341/767/175 357/720/175
f 357/768/175 341/769/175 344/770/175 362/732/175
f 352/771/172 351/772/172 338/773/172 337/774/172
f 359/775/183 352/776/183 337/777/183 355/778/183
f 355/779/182 337/780/182 340/781/182 356/782/182
o Cube.008_Cube.010
v 0.729053 1.292351 3.192721
v 0.729053 1.292351 2.630853
v 0.729053 0.730485 2.630853
v 0.729053 0.730484 3.192721
v 1.290920 1.292351 2.630853
v 1.290920 0.730485 2.630853
v 1.290920 1.292351 3.192721
v 1.290920 0.730484 3.192721
v 0.729053 1.292352 -3.070601
v 0.729053 0.730485 -3.070601
v 0.729053 0.730485 -2.508733
v 0.729053 1.292352 -2.508733
v 1.290920 0.730485 -2.508733
v 1.290920 1.292352 -2.508733
v 1.290920 0.730485 -3.070601
v 1.290920 1.292352 -3.070601
vt 0.0000 0.0000
vt 1.0000 0.0000
vt 1.0000 1.0000
vt 0.0000 1.0000
vt 0.0000 0.0000
vt 1.0000 0.0000
vt 1.0000 1.0000
vt 0.0000 1.0000
vt 0.0000 0.0000
vt 1.0000 0.0000
vt 1.0000 1.0000
vt 0.0000 1.0000
vt 0.0000 0.0000
vt 1.0000 0.0000
vt 1.0000 1.0000
vt 0.0000 1.0000
vt 0.0000 0.0000
vt 1.0000 0.0000
vt 1.0000 1.0000
vt 0.0000 1.0000
vt 0.0000 0.0000
vt 1.0000 0.0000
vt 1.0000 1.0000
vt 0.0000 1.0000
vt 0.0000 0.0000
vt 1.0000 0.0000
vt 1.0000 1.0000
vt 0.0000 1.0000
vt 0.0000 0.0000
vt 1.0000 0.0000
vt 1.0000 1.0000
vt 0.0000 1.0000
vt 0.0000 0.0000
vt 1.0000 0.0000
vt 1.0000 1.0000
vt 0.0000 1.0000
vt 0.0000 0.0000
vt 0.0000 1.0000
vt 1.0000 0.0000
vt 1.0000 1.0000
vn -1.0000 0.0000 0.0000
vn 0.0000 0.0000 -1.0000
vn 1.0000 0.0000 0.0000
vn 0.0000 -0.0000 1.0000
vn 0.0000 -1.0000 -0.0000
vn 0.0000 1.0000 0.0000
usemtl Material.009
s 1
f 363/783/184 364/784/184 365/785/184 366/786/184
f 364/787/185 367/788/185 368/789/185 365/790/185
f 367/791/186 369/792/186 370/793/186 368/794/186
f 369/795/187 363/796/187 366/797/187 370/798/187
f 366/799/188 365/800/188 368/789/188 370/798/188
f 369/795/189 367/788/189 364/801/189 363/802/189
f 371/803/184 372/804/184 373/805/184 374/806/184
f 374/807/187 373/808/187 375/809/187 376/810/187
f 376/811/186 375/812/186 377/813/186 378/814/186
f 378/815/185 377/816/185 372/817/185 371/818/185
f 372/819/188 377/816/188 375/809/188 373/820/188
f 378/815/189 371/821/189 374/822/189 376/810/189
o Cube.004_Cube.005
v -0.607231 0.834975 4.278349
v -0.542741 0.978908 3.582582
v -0.445369 0.285082 3.448076
v -0.509860 0.141149 4.143843
v 0.161054 1.061712 3.664946
v 0.258425 0.367886 3.530440
v 0.096563 0.917778 4.360713
v 0.193935 0.223953 4.226207
v -0.607231 0.834977 -4.292062
v -0.509860 0.141151 -4.157556
v -0.445369 0.285084 -3.461789
v -0.542741 0.978910 -3.596295
v 0.258425 0.367888 -3.544153
v 0.161054 1.061714 -3.678659
v 0.193935 0.223955 -4.239920
v 0.096563 0.917780 -4.374426
vt 0.0000 0.0000
vt 1.0000 0.0000
vt 1.0000 1.0000
vt 0.0000 1.0000
vt 0.0000 0.0000
vt 1.0000 0.0000
vt 1.0000 1.0000
vt 0.0000 1.0000
vt 0.0000 0.0000
vt 1.0000 0.0000
vt 1.0000 1.0000
vt 0.0000 1.0000
vt 0.0000 0.0000
vt 1.0000 0.0000
vt 1.0000 1.0000
vt 0.0000 1.0000
vt 0.0000 0.0000
vt 1.0000 0.0000
vt 1.0000 1.0000
vt 0.0000 1.0000
vt 0.0000 0.0000
vt 1.0000 0.0000
vt 1.0000 1.0000
vt 0.0000 1.0000
vt 0.0000 0.0000
vt 1.0000 0.0000
vt 1.0000 1.0000
vt 0.0000 1.0000
vt 0.0000 0.0000
vt 1.0000 0.0000
vt 1.0000 1.0000
vt 0.0000 1.0000
vt 0.0000 0.0000
vt 1.0000 0.0000
vt 1.0000 1.0000
vt 0.0000 1.0000
vt 0.0000 0.0000
vt 0.0000 1.0000
vt 1.0000 0.0000
vt 1.0000 1.0000
vn -0.9865 -0.1161 -0.1154
vn 0.0904 0.2018 -0.9753
vn 0.9865 0.1161 0.1154
vn -0.0904 -0.2018 0.9753
vn 0.1365 -0.9725 -0.1885
vn -0.1365 0.9725 0.1885
vn -0.9865 -0.1161 0.1154
vn 0.0904 0.2018 0.9753
vn 0.9865 0.1161 -0.1154
vn -0.0904 -0.2018 -0.9753
vn 0.1365 -0.9725 0.1885
vn -0.1365 0.9725 -0.1885
usemtl Material.004
s 1
f 379/823/190 380/824/190 381/825/190 382/826/190
f 380/827/191 383/828/191 384/829/191 381/830/191
f 383/831/192 385/832/192 386/833/192 384/834/192
f 385/835/193 379/836/193 382/837/193 386/838/193
f 382/839/194 381/840/194 384/829/194 386/838/194
f 385/835/195 383/828/195 380/841/195 379/842/195
f 387/843/196 388/844/196 389/845/196 390/846/196
f 390/847/197 389/848/197 391/849/197 392/850/197
f 392/851/198 391/852/198 393/853/198 394/854/198
f 394/855/199 393/856/199 388/857/199 387/858/199
f 388/859/200 393/856/200 391/849/200 389/860/200
f 394/855/201 387/861/201 390/862/201 392/850/201
o Cube.010_Cube.012
v -8.442013 1.459601 7.105962
v -5.974152 0.549151 0.784938
v -5.974152 0.374690 0.784938
v -8.442013 1.285140 6.910152
v 0.151063 0.549151 0.784938
v 0.151063 0.374690 0.784938
v -2.316800 1.459601 5.124271
v -2.316800 1.285140 4.928461
v -8.442013 1.459603 -7.090863
v -8.442013 1.285142 -6.895052
v -5.974152 0.374690 -0.769838
v -5.974152 0.549151 -0.769838
v 0.151063 0.374690 -0.769838
v 0.151063 0.549151 -0.769838
v -2.316800 1.285142 -4.913361
v -2.316800 1.459603 -5.109171
vt 0.2785 0.6654
vt 0.5220 0.6145
vt 0.5220 0.6091
vt 0.2855 0.6607
vt 0.5661 0.4969
vt 0.5661 0.4916
vt 0.3933 0.5555
vt 0.4003 0.5509
vt 0.2785 0.6654
vt 0.2855 0.6607
vt 0.5220 0.6091
vt 0.5220 0.6145
vt 0.5661 0.4916
vt 0.5661 0.4969
vt 0.4003 0.5509
vt 0.3933 0.5555
vn -0.8961 0.2173 -0.3871
vn 0.0000 0.0000 -1.0000
vn 0.7967 -0.2958 0.5270
vn 0.2104 -0.7299 0.6503
vn 0.0305 -0.9816 0.1887
vn -0.0294 0.9830 -0.1815
vn -0.8961 0.2173 0.3871
vn 0.0000 -0.0000 1.0000
vn 0.7967 -0.2958 -0.5270
vn 0.2104 -0.7299 -0.6503
vn 0.0305 -0.9816 -0.1887
vn -0.0294 0.9830 0.1815
usemtl Material.010
s 1
f 395/863/202 396/864/202 397/865/202 398/866/202
f 396/864/203 399/867/203 400/868/203 397/865/203
f 399/867/204 401/869/204 402/870/204 400/868/204
f 401/869/205 395/863/205 398/866/205 402/870/205
f 398/866/206 397/865/206 400/868/206 402/870/206
f 401/869/207 399/867/207 396/864/207 395/863/207
f 403/871/208 404/872/208 405/873/208 406/874/208
f 406/874/209 405/873/209 407/875/209 408/876/209
f 408/876/210 407/875/210 409/877/210 410/878/210
f 410/878/211 409/877/211 404/872/211 403/871/211
f 404/872/212 409/877/212 407/875/212 405/873/212
f 410/878/213 403/871/213 406/874/213 408/876/213
o Cube.005_Cube.006
v -3.514526 1.640825 -0.785716
v -3.514526 1.640825 -0.903147
v -3.514526 0.640825 -0.903147
v -3.514526 0.511821 -0.785716
v -2.514526 1.640825 -0.903147
v -1.514525 1.640825 -0.903147
v -1.514525 0.640825 -0.903147
v -2.514526 0.640825 -0.903147
v -1.514525 1.640825 -0.785716
v -1.514525 1.640825 -0.584882
v -1.514525 0.640825 -0.584882
v -1.514525 0.511821 -0.785716
v -2.514526 1.640825 -0.584882
v -3.514526 1.640825 -0.584882
v -3.514526 0.640825 -0.584882
v -2.514526 0.640825 -0.584882
v -2.514526 0.511821 -0.785716
v -2.514526 2.640825 -0.785716
v -2.514526 1.977654 -0.903147
v -3.514526 1.977654 -0.903147
v -3.772516 2.640825 -0.785716
v -2.514526 2.640825 -0.668284
v -3.772516 2.640825 -0.668284
v -1.772516 2.640825 -0.668284
v -1.772516 2.640825 -0.785716
v -1.514525 1.977654 -0.903147
v -3.514526 1.640825 0.719376
v -3.514526 0.511821 0.719376
v -3.514526 0.640825 0.836808
v -3.514526 1.640825 0.836808
v -2.514526 1.640825 0.836808
v -2.514526 0.640825 0.836808
v -1.514525 0.640825 0.836808
v -1.514525 1.640825 0.836808
v -1.514525 1.640825 0.719376
v -1.514525 0.511821 0.719376
v -1.514525 0.640825 0.518542
v -1.514525 1.640825 0.518542
v -2.514526 1.640825 0.518542
v -2.514526 0.640825 0.518542
v -3.514526 0.640825 0.518542
v -3.514526 1.640825 0.518542
v -2.514526 0.511821 0.719376
v -2.514526 2.640825 0.719376
v -3.772516 2.640825 0.719376
v -3.514526 1.977654 0.836808
v -2.514526 1.977654 0.836808
v -2.514526 2.640825 0.601945
v -3.772516 2.640825 0.601945
v -1.772516 2.640825 0.601945
v -1.772516 2.640825 0.719376
v -1.514525 1.977654 0.836808
vt 0.0000 0.0000
vt 1.0000 0.0000
vt 1.0000 1.0000
vt 0.0000 1.0000
vt 0.0000 0.0000
vt 1.0000 0.0000
vt 1.0000 1.0000
vt 0.0000 1.0000
vt 0.0000 0.0000
vt 1.0000 0.0000
vt 1.0000 1.0000
vt 0.0000 1.0000
vt 0.0000 0.0000
vt 1.0000 0.0000
vt 1.0000 1.0000
vt 0.0000 1.0000
vt 0.0000 0.0000
vt 1.0000 0.0000
vt 0.0000 0.0000
vt 1.0000 0.0000
vt 1.0000 1.0000
vt 0.0000 1.0000
vt 0.0000 0.0000
vt 1.0000 0.0000
vt 1.0000 1.0000
vt 0.0000 1.0000
vt 0.0000 0.0000
vt 1.0000 0.0000
vt 1.0000 1.0000
vt 0.0000 1.0000
vt 0.0000 0.0000
vt 1.0000 0.0000
vt 1.0000 1.0000
vt 0.0000 1.0000
vt 0.0000 0.0000
vt 1.0000 0.0000
vt 1.0000 1.0000
vt 0.0000 1.0000
vt 0.0000 0.0000
vt 1.0000 0.0000
vt 1.0000 1.0000
vt 0.0000 0.0000
vt 1.0000 0.0000
vt 1.0000 1.0000
vt 0.0000 1.0000
vt 0.0000 0.0000
vt 1.0000 0.0000
vt 1.0000 1.0000
vt 1.0000 0.0000
vt 1.0000 1.0000
vt 0.0000 1.0000
vt 1.0000 0.0000
vt 1.0000 1.0000
vt 0.0000 1.0000
vt 0.0000 0.0000
vt 1.0000 0.0000
vt 0.0000 1.0000
vt 0.0000 0.0000
vt 1.0000 1.0000
vt 0.0000 1.0000
vt 1.0000 0.0000
vt 1.0000 1.0000
vt 0.0000 1.0000
vt 0.0000 0.0000
vt 1.0000 0.0000
vt 0.0000 1.0000
vt 0.0000 0.0000
vt 1.0000 1.0000
vt 0.0000 1.0000
vt 0.0000 0.0000
vt 1.0000 1.0000
vt 0.0000 1.0000
vt 0.0000 0.0000
vt 1.0000 0.0000
vt 1.0000 1.0000
vt 0.0000 1.0000
vt 0.0000 0.0000
vt 1.0000 0.0000
vt 1.0000 1.0000
vt 0.0000 1.0000
vt 0.0000 0.0000
vt 1.0000 0.0000
vt 1.0000 1.0000
vt 0.0000 1.0000
vt 0.0000 0.0000
vt 1.0000 0.0000
vt 1.0000 1.0000
vt 0.0000 1.0000
vt 0.0000 0.0000
vt 1.0000 0.0000
vt 1.0000 1.0000
vt 0.0000 1.0000
vt 0.0000 0.0000
vt 1.0000 0.0000
vt 1.0000 1.0000
vt 0.0000 1.0000
vt 0.0000 0.0000
vt 1.0000 0.0000
vt 1.0000 1.0000
vt 0.0000 1.0000
vt 0.0000 0.0000
vt 0.0000 1.0000
vt 0.0000 0.0000
vt 1.0000 0.0000
vt 1.0000 1.0000
vt 0.0000 1.0000
vt 0.0000 0.0000
vt 1.0000 0.0000
vt 1.0000 1.0000
vt 0.0000 1.0000
vt 0.0000 0.0000
vt 1.0000 0.0000
vt 1.0000 1.0000
vt 0.0000 1.0000
vt 0.0000 0.0000
vt 1.0000 0.0000
vt 1.0000 1.0000
vt 0.0000 1.0000
vt 0.0000 0.0000
vt 1.0000 0.0000
vt 1.0000 1.0000
vt 0.0000 1.0000
vt 0.0000 0.0000
vt 1.0000 1.0000
vt 0.0000 1.0000
vt 0.0000 0.0000
vt 1.0000 0.0000
vt 1.0000 1.0000
vt 0.0000 1.0000
vt 0.0000 0.0000
vt 1.0000 1.0000
vt 0.0000 1.0000
vt 1.0000 0.0000
vt 1.0000 1.0000
vt 0.0000 1.0000
vt 1.0000 0.0000
vt 1.0000 1.0000
vt 0.0000 1.0000
vt 0.0000 0.0000
vt 1.0000 0.0000
vt 0.0000 1.0000
vt 0.0000 0.0000
vt 1.0000 0.0000
vt 1.0000 1.0000
vt 1.0000 0.0000
vt 1.0000 1.0000
vt 0.0000 1.0000
vt 0.0000 0.0000
vt 1.0000 0.0000
vt 0.0000 1.0000
vt 0.0000 0.0000
vt 1.0000 0.0000
vt 1.0000 1.0000
vt 0.0000 0.0000
vt 1.0000 0.0000
vt 1.0000 1.0000
vt 0.0000 0.0000
vt 1.0000 0.0000
vt 1.0000 1.0000
vt 0.0000 1.0000
vt 0.0000 0.0000
vt 1.0000 0.0000
vt 1.0000 1.0000
vt 0.0000 1.0000
vt 0.0000 0.0000
vt 1.0000 0.0000
vt 1.0000 1.0000
vt 0.0000 1.0000
vn -1.0000 -0.0000 0.0000
vn 0.0000 0.0000 -1.0000
vn 1.0000 0.0000 0.0000
vn 0.0000 -0.0000 1.0000
vn 0.0000 -0.6732 -0.7395
vn 0.0000 0.1744 -0.9847
vn 0.0000 1.0000 0.0000
vn 0.0000 -0.8414 0.5405
vn 0.0000 0.0831 0.9965
vn 0.8627 0.1665 0.4775
vn 0.9683 0.2498 0.0000
vn -0.9683 -0.2498 -0.0000
vn -0.8627 -0.1665 -0.4775
vn 0.0000 -0.6732 0.7395
vn 0.0000 0.1744 0.9847
vn 0.0000 -0.8414 -0.5405
vn 0.0000 0.0831 -0.9965
vn 0.8627 0.1665 -0.4775
vn -0.8627 -0.1665 0.4775
usemtl None
s 1
f 411/879/214 412/880/214 413/881/214 414/882/214
f 415/883/215 416/884/215 417/885/215 418/886/215
f 419/887/216 420/888/216 421/889/216 422/890/216
f 423/891/217 424/892/217 425/893/217 426/894/217
f 427/895/218 418/896/218 417/885/218 422/890/218
f 428/897/219 429/898/219 430/899/219 431/900/219
f 432/901/220 428/902/220 431/903/220 433/904/220
f 434/905/220 435/906/220 428/907/220 432/908/220
f 435/909/219 436/910/219 429/911/219 428/912/219
f 426/913/221 427/914/221 422/915/221 421/916/221
f 425/917/221 414/918/221 427/919/221 426/894/221
f 414/920/218 413/921/218 418/922/218 427/923/218
f 420/924/217 423/925/217 426/926/217 421/916/217
f 434/905/222 432/927/222 423/928/222 420/929/222
f 432/901/222 433/930/222 424/931/222 423/932/222
f 416/933/216 419/934/216 422/915/216 417/935/216
f 436/936/223 435/906/223 419/937/223 416/938/223
f 435/909/224 434/939/224 420/940/224 419/941/224
f 412/942/215 415/943/215 418/922/215 413/944/215
f 430/945/215 429/898/215 415/946/215 412/947/215
f 429/948/215 436/910/215 416/949/215 415/950/215
f 424/951/214 411/952/214 414/953/214 425/954/214
f 433/955/225 431/956/225 411/957/225 424/958/225
f 431/959/226 430/960/226 412/961/226 411/962/226
f 437/963/214 438/964/214 439/965/214 440/966/214
f 441/967/217 442/968/217 443/969/217 444/970/217
f 445/971/216 446/972/216 447/973/216 448/974/216
f 449/975/215 450/976/215 451/977/215 452/978/215
f 453/979/227 446/972/227 443/969/227 442/980/227
f 454/981/228 455/982/228 456/983/228 457/984/228
f 458/985/220 459/986/220 455/987/220 454/988/220
f 460/989/220 458/990/220 454/991/220 461/992/220
f 461/993/228 454/994/228 457/995/228 462/996/228
f 450/997/229 447/998/229 446/999/229 453/1000/229
f 451/1001/229 450/976/229 453/1002/229 438/1003/229
f 438/1004/227 453/1005/227 442/1006/227 439/1007/227
f 448/1008/215 447/998/215 450/1009/215 449/1010/215
f 460/989/230 448/1011/230 449/1012/230 458/1013/230
f 458/985/230 449/1014/230 452/1015/230 459/1016/230
f 444/1017/216 443/1018/216 446/999/216 445/1019/216
f 462/1020/231 444/1021/231 445/1022/231 461/992/231
f 461/993/224 445/1023/224 448/1024/224 460/1025/224
f 440/1026/217 439/1027/217 442/1006/217 441/1028/217
f 456/1029/217 440/1030/217 441/1031/217 457/984/217
f 457/1032/217 441/1033/217 444/1034/217 462/996/217
f 452/1035/214 451/1036/214 438/1037/214 437/1038/214
f 459/1039/225 452/1040/225 437/1041/225 455/1042/225
f 455/1043/232 437/1044/232 440/1045/232 456/1046/232
o Cube.001
v 0.213875 -0.977409 0.346431
v 0.213875 -0.977409 2.346431
v -1.786125 -0.977409 2.346431
v -1.786124 -0.977409 0.346430
v -1.191662 -0.298712 0.346431
v -1.191663 -0.298712 2.346430
v -1.191663 0.148247 2.346430
v -1.191662 0.148247 0.346431
v 0.808338 -0.298712 0.346431
v 0.808337 -0.298712 2.346431
v 0.808337 -0.298712 2.827425
v 0.213875 -0.977409 2.827424
v -1.191663 -0.298712 2.827424
v -1.786125 -0.977409 2.827424
v 0.808337 0.148247 2.346431
v 1.211000 0.284177 2.749095
v -1.594326 0.284177 2.749094
v 0.808338 0.148247 0.346431
v -1.594326 0.284177 -0.056233
v -1.594326 0.548362 2.749094
v -1.594326 0.548363 -0.056233
v 1.211002 0.284177 -0.056232
v 1.211002 0.548363 -0.056232
v -1.594326 0.906812 -0.056233
v 1.211002 0.906812 -0.056232
v 1.211000 0.548362 2.749095
v -1.594326 0.906812 2.749094
v 1.211000 0.906812 2.749095
v 0.517187 0.906812 2.055280
v -0.900512 0.906812 2.055280
v -0.900512 0.906812 0.637582
v -0.900512 1.077493 2.055280
v -0.900512 1.077493 0.637582
v 0.517187 0.906812 0.637582
v 0.517187 1.077493 0.637582
v 0.517187 1.077493 2.055280
v 0.213875 -0.977409 -0.346431
v -1.786124 -0.977409 -0.346430
v -1.786125 -0.977409 -2.346431
v 0.213875 -0.977409 -2.346431
v -1.191662 -0.298712 -0.346431
v -1.191662 0.148247 -0.346431
v -1.191663 0.148247 -2.346430
v -1.191663 -0.298712 -2.346430
v 0.808337 -0.298712 -2.346431
v 0.808338 -0.298712 -0.346431
v 0.213875 -0.977409 -2.827424
v 0.808337 -0.298712 -2.827425
v -1.786125 -0.977409 -2.827424
v -1.191663 -0.298712 -2.827424
v -1.594326 0.284177 -2.749094
v 1.211000 0.284177 -2.749095
v 0.808337 0.148247 -2.346431
v 0.808338 0.148247 -0.346431
v -1.594326 0.284177 0.056233
v -1.594326 0.548363 0.056233
v -1.594326 0.548363 -2.749094
v 1.211002 0.284177 0.056232
v 1.211002 0.548363 0.056232
v 1.211002 0.906812 0.056232
v -1.594326 0.906812 0.056233
v 1.211000 0.548363 -2.749095
v -1.594326 0.906812 -2.749094
v -0.900512 0.906812 -2.055280
v 0.517187 0.906812 -2.055280
v 1.211000 0.906812 -2.749095
v -0.900512 0.906812 -0.637582
v -0.900512 1.077493 -0.637582
v -0.900512 1.077493 -2.055280
v 0.517187 0.906812 -0.637582
v 0.517187 1.077493 -0.637582
v 0.517187 1.077493 -2.055280
vt 0.0000 0.0000
vt 1.0000 0.0000
vt 1.0000 1.0000
vt 0.0000 1.0000
vt 0.0000 0.0000
vt 1.0000 0.0000
vt 1.0000 1.0000
vt 0.0000 1.0000
vt 1.0000 0.0000
vt 1.0000 1.0000
vt 0.0000 1.0000
vt 0.0000 0.0000
vt 1.0000 0.0000
vt 1.0000 1.0000
vt 0.0000 1.0000
vt 0.0000 0.0000
vt 1.0000 1.0000
vt 0.0000 0.0000
vt 1.0000 0.0000
vt 1.0000 1.0000
vt 0.0000 1.0000
vt 0.0000 0.0000
vt 1.0000 0.0000
vt 1.0000 1.0000
vt 0.0000 1.0000
vt 1.0000 1.0000
vt 0.0000 0.0000
vt 0.0000 1.0000
vt 0.0000 0.0000
vt 1.0000 0.0000
vt 1.0000 1.0000
vt 0.0000 1.0000
vt 0.0000 0.0000
vt 1.0000 0.0000
vt 1.0000 1.0000
vt 0.0000 1.0000
vt 1.0000 0.0000
vt 1.0000 1.0000
vt 0.0000 1.0000
vt 1.0000 1.0000
vt 0.0000 1.0000
vt 1.0000 1.0000
vt 0.0000 1.0000
vt 0.0000 0.0000
vt 1.0000 0.0000
vt 1.0000 1.0000
vt 0.0000 1.0000
vt 0.0000 0.0000
vt 1.0000 0.0000
vt 1.0000 1.0000
vt 0.0000 1.0000
vt 0.0000 0.0000
vt 1.0000 0.0000
vt 1.0000 1.0000
vt 0.0000 1.0000
vt 0.0000 0.0000
vt 1.0000 0.0000
vt 1.0000 1.0000
vt 0.0000 1.0000
vt 0.0000 0.0000
vt 1.0000 0.0000
vt 1.0000 1.0000
vt 0.0000 1.0000
vt 0.0000 0.0000
vt 1.0000 0.0000
vt 1.0000 1.0000
vt 0.0000 1.0000
vt 0.0000 0.0000
vt 1.0000 0.0000
vt 1.0000 1.0000
vt 0.0000 1.0000
vt 0.0000 0.0000
vt 1.0000 0.0000
vt 1.0000 1.0000
vt 0.0000 1.0000
vt 0.0000 0.0000
vt 1.0000 0.0000
vt 1.0000 1.0000
vt 0.0000 1.0000
vt 0.0000 0.0000
vt 1.0000 0.0000
vt 1.0000 1.0000
vt 0.0000 1.0000
vt 0.0000 0.0000
vt 1.0000 0.0000
vt 1.0000 1.0000
vt 0.0000 1.0000
vt 0.0000 0.0000
vt 1.0000 0.0000
vt 1.0000 1.0000
vt 0.0000 1.0000
vt 0.0000 0.0000
vt 1.0000 0.0000
vt 1.0000 1.0000
vt 0.0000 1.0000
vt 0.0000 0.0000
vt 1.0000 0.0000
vt 1.0000 1.0000
vt 0.0000 1.0000
vt 0.0000 0.0000
vt 1.0000 0.0000
vt 1.0000 1.0000
vt 0.0000 1.0000
vt 0.0000 0.0000
vt 1.0000 0.0000
vt 1.0000 1.0000
vt 0.0000 1.0000
vt 0.0000 0.0000
vt 1.0000 0.0000
vt 0.0000 1.0000
vt 0.0000 0.0000
vt 1.0000 0.0000
vt 1.0000 1.0000
vt 0.0000 1.0000
vt 0.0000 0.0000
vt 1.0000 0.0000
vt 1.0000 1.0000
vt 0.0000 1.0000
vt 0.0000 0.0000
vt 1.0000 0.0000
vt 1.0000 1.0000
vt 0.0000 0.0000
vt 1.0000 0.0000
vt 1.0000 1.0000
vt 0.0000 1.0000
vt 0.0000 0.0000
vt 1.0000 0.0000
vt 1.0000 1.0000
vt 0.0000 1.0000
vt 1.0000 0.0000
vt 1.0000 1.0000
vt 0.0000 1.0000
vt 0.0000 0.0000
vt 1.0000 0.0000
vt 1.0000 1.0000
vt 0.0000 1.0000
vt 0.0000 0.0000
vt 1.0000 1.0000
vt 0.0000 0.0000
vt 1.0000 0.0000
vt 1.0000 1.0000
vt 0.0000 1.0000
vt 0.0000 0.0000
vt 1.0000 0.0000
vt 1.0000 1.0000
vt 0.0000 1.0000
vt 1.0000 1.0000
vt 0.0000 0.0000
vt 1.0000 0.0000
vt 0.0000 0.0000
vt 1.0000 0.0000
vt 1.0000 1.0000
vt 0.0000 1.0000
vt 0.0000 0.0000
vt 1.0000 0.0000
vt 1.0000 1.0000
vt 0.0000 1.0000
vt 1.0000 0.0000
vt 1.0000 1.0000
vt 0.0000 1.0000
vt 1.0000 0.0000
vt 1.0000 1.0000
vt 1.0000 0.0000
vt 1.0000 1.0000
vt 0.0000 0.0000
vt 1.0000 0.0000
vt 1.0000 1.0000
vt 0.0000 1.0000
vt 0.0000 0.0000
vt 1.0000 0.0000
vt 1.0000 1.0000
vt 0.0000 1.0000
vt 0.0000 0.0000
vt 1.0000 0.0000
vt 1.0000 1.0000
vt 0.0000 1.0000
vt 0.0000 0.0000
vt 1.0000 0.0000
vt 1.0000 1.0000
vt 0.0000 1.0000
vt 0.0000 0.0000
vt 1.0000 0.0000
vt 1.0000 1.0000
vt 0.0000 1.0000
vt 0.0000 0.0000
vt 1.0000 0.0000
vt 1.0000 1.0000
vt 0.0000 1.0000
vt 0.0000 0.0000
vt 1.0000 0.0000
vt 1.0000 1.0000
vt 0.0000 1.0000
vt 0.0000 0.0000
vt 1.0000 0.0000
vt 1.0000 1.0000
vt 0.0000 1.0000
vt 0.0000 0.0000
vt 1.0000 0.0000
vt 1.0000 1.0000
vt 0.0000 1.0000
vt 0.0000 0.0000
vt 1.0000 0.0000
vt 1.0000 1.0000
vt 0.0000 1.0000
vt 0.0000 0.0000
vt 1.0000 0.0000
vt 1.0000 1.0000
vt 0.0000 1.0000
vt 0.0000 0.0000
vt 1.0000 0.0000
vt 1.0000 1.0000
vt 0.0000 1.0000
vt 0.0000 0.0000
vt 1.0000 0.0000
vt 1.0000 1.0000
vt 0.0000 1.0000
vt 0.0000 0.0000
vt 1.0000 0.0000
vt 1.0000 1.0000
vt 0.0000 1.0000
vt 0.0000 0.0000
vt 1.0000 0.0000
vt 1.0000 1.0000
vt 0.0000 1.0000
vt 0.0000 0.0000
vt 1.0000 0.0000
vt 1.0000 1.0000
vt 0.0000 1.0000
vt 0.0000 0.0000
vt 1.0000 0.0000
vt 0.0000 1.0000
vt 0.0000 0.0000
vt 1.0000 0.0000
vt 1.0000 1.0000
vt 0.0000 1.0000
vt 0.0000 0.0000
vt 1.0000 0.0000
vt 1.0000 1.0000
vt 0.0000 1.0000
vt 0.0000 0.0000
vt 1.0000 1.0000
vt 0.0000 1.0000
vn 0.0000 -1.0000 -0.0000
vn -1.0000 0.0000 -0.0000
vn 0.7522 -0.6589 0.0000
vn -0.7522 0.6589 -0.0000
vn 0.0000 0.0000 -1.0000
vn -0.0000 -0.0000 1.0000
vn -0.0000 1.0000 0.0000
vn -0.0000 -0.9475 0.3198
vn 1.0000 -0.0000 0.0000
vn 0.3198 -0.9475 0.0000
vn -0.3198 -0.9475 -0.0000
vn 0.0000 -0.9475 -0.3198
usemtl Material.001
s 1
f 463/1047/233 464/1048/233 465/1049/233 466/1050/233
f 467/1051/234 468/1052/234 469/1053/234 470/1054/234
f 463/1047/235 471/1055/235 472/1056/235 464/1057/235
f 464/1058/235 472/1059/235 473/1060/235 474/1061/235
f 465/1062/236 468/1052/236 467/1063/236 466/1050/236
f 471/1064/237 463/1065/237 466/1066/237 467/1067/237
f 474/1068/238 473/1069/238 475/1070/238 476/1071/238
f 465/1062/233 464/1048/233 474/1072/233 476/1071/233
f 472/1073/239 468/1052/239 475/1070/239 473/1074/239
f 468/1075/236 465/1076/236 476/1077/236 475/1078/236
f 469/1079/240 477/1080/240 478/1081/240 479/1082/240
f 471/1064/237 467/1083/237 470/1084/237 480/1085/237
f 468/1075/238 472/1059/238 477/1086/238 469/1087/238
f 472/1073/241 471/1055/241 480/1088/241 477/1089/241
f 481/1090/234 479/1091/234 482/1092/234 483/1093/234
f 477/1094/242 480/1095/242 484/1096/242 478/1097/242
f 470/1098/243 469/1099/243 479/1100/243 481/1101/243
f 480/1102/244 470/1103/244 481/1104/244 484/1105/244
f 485/1106/237 483/1107/237 486/1108/237 487/1109/237
f 484/1110/237 481/1111/237 483/1112/237 485/1113/237
f 479/1114/238 478/1115/238 488/1116/238 482/1117/238
f 478/1118/241 484/1119/241 485/1120/241 488/1121/241
f 489/1122/239 490/1123/239 491/1124/239 492/1125/239
f 482/1126/238 488/1127/238 490/1128/238 489/1129/238
f 488/1130/241 485/1131/241 487/1132/241 490/1133/241
f 483/1134/234 482/1135/234 489/1136/234 486/1137/234
f 493/1138/234 492/1139/234 494/1140/234 495/1141/234
f 490/1142/239 487/1143/239 496/1144/239 491/1145/239
f 486/1146/239 489/1147/239 492/1148/239 493/1149/239
f 487/1150/239 486/1151/239 493/1152/239 496/1153/239
f 497/1154/239 495/1155/239 494/1140/239 498/1156/239
f 496/1157/237 493/1158/237 495/1159/237 497/1160/237
f 492/1161/238 491/1162/238 498/1163/238 494/1164/238
f 491/1165/241 496/1166/241 497/1167/241 498/1156/241
f 499/1168/233 500/1169/233 501/1170/233 502/1171/233
f 503/1172/234 504/1173/234 505/1174/234 506/1175/234
f 499/1168/235 502/1176/235 507/1177/235 508/1178/235
f 502/1179/235 509/1180/235 510/1181/235 507/1182/235
f 501/1183/236 500/1169/236 503/1184/236 506/1175/236
f 508/1185/238 503/1186/238 500/1187/238 499/1188/238
f 509/1189/237 511/1190/237 512/1191/237 510/1192/237
f 501/1183/233 511/1190/233 509/1193/233 502/1171/233
f 507/1194/239 510/1195/239 512/1191/239 506/1175/239
f 506/1196/236 512/1197/236 511/1198/236 501/1199/236
f 505/1200/244 513/1201/244 514/1202/244 515/1203/244
f 508/1185/238 516/1204/238 504/1205/238 503/1206/238
f 506/1196/237 505/1207/237 515/1208/237 507/1182/237
f 507/1194/241 515/1209/241 516/1210/241 508/1178/241
f 517/1211/234 518/1212/234 519/1213/234 513/1214/234
f 515/1215/242 514/1216/242 520/1217/242 516/1218/242
f 504/1219/243 517/1220/243 513/1221/243 505/1222/243
f 516/1223/240 520/1224/240 517/1225/240 504/1226/240
f 521/1227/238 522/1228/238 523/1229/238 518/1230/238
f 520/1231/238 521/1232/238 518/1233/238 517/1234/238
f 513/1235/237 519/1236/237 524/1237/237 514/1238/237
f 514/1239/241 524/1240/241 521/1241/241 520/1242/241
f 525/1243/239 526/1244/239 527/1245/239 528/1246/239
f 519/1247/237 525/1248/237 528/1249/237 524/1250/237
f 524/1251/241 528/1252/241 522/1253/241 521/1254/241
f 518/1255/234 523/1256/234 525/1257/234 519/1258/234
f 529/1259/234 530/1260/234 531/1261/234 526/1262/234
f 528/1263/239 527/1264/239 532/1265/239 522/1266/239
f 523/1267/239 529/1268/239 526/1269/239 525/1270/239
f 522/1271/239 532/1272/239 529/1273/239 523/1274/239
f 533/1275/239 534/1276/239 531/1261/239 530/1277/239
f 532/1278/238 533/1279/238 530/1280/238 529/1281/238
f 526/1282/237 531/1283/237 534/1284/237 527/1285/237
f 527/1286/241 534/1276/241 533/1287/241 532/1288/241
o Cube.007_Cube.009
v 1.009873 1.266412 1.029384
v 1.009873 1.266412 0.035637
v 1.554491 0.885019 0.035637
v 1.554491 0.885019 1.029384
v 2.003621 1.266412 0.035637
v 2.003621 1.266412 1.029384
v 2.548238 0.885019 1.029384
v 2.548238 0.885019 0.035637
v 1.009873 1.266412 -0.918052
v 1.554491 0.885019 -0.918052
v 1.554491 0.885019 0.075695
v 1.009873 1.266412 0.075695
v 2.003621 1.266412 0.075695
v 2.548238 0.885019 0.075695
v 2.548238 0.885019 -0.918052
v 2.003621 1.266412 -0.918052
vt 0.0000 0.0000
vt 1.0000 0.0000
vt 1.0000 1.0000
vt 0.0000 1.0000
vt 0.0000 0.0000
vt 1.0000 0.0000
vt 1.0000 1.0000
vt 0.0000 1.0000
vt 0.0000 0.0000
vt 1.0000 0.0000
vt 1.0000 1.0000
vt 0.0000 1.0000
vt 0.0000 0.0000
vt 1.0000 0.0000
vt 1.0000 1.0000
vt 1.0000 0.0000
vt 1.0000 1.0000
vt 0.0000 1.0000
vt 0.0000 0.0000
vt 1.0000 0.0000
vt 1.0000 1.0000
vt 0.0000 1.0000
vt 0.0000 0.0000
vt 1.0000 0.0000
vt 1.0000 1.0000
vt 0.0000 1.0000
vt 0.0000 0.0000
vt 1.0000 0.0000
vt 1.0000 1.0000
vt 0.0000 1.0000
vt 0.0000 0.0000
vt 1.0000 1.0000
vt 0.0000 1.0000
vt 1.0000 0.0000
vt 1.0000 1.0000
vt 0.0000 1.0000
vn -0.5736 -0.8191 -0.0000
vn 0.5736 0.8191 0.0000
vn 0.0000 -0.0000 1.0000
vn 0.0000 -1.0000 -0.0000
vn 0.0000 1.0000 0.0000
vn 0.0000 0.0000 -1.0000
usemtl Material.000
s 1
f 535/1289/245 536/1290/245 537/1291/245 538/1292/245
f 539/1293/246 540/1294/246 541/1295/246 542/1296/246
f 540/1297/247 535/1298/247 538/1299/247 541/1300/247
f 538/1301/248 537/1302/248 542/1303/248 541/1300/248
f 540/1297/249 539/1304/249 536/1305/249 535/1306/249
f 543/1307/245 544/1308/245 545/1309/245 546/1310/245
f 547/1311/246 548/1312/246 549/1313/246 550/1314/246
f 550/1315/250 549/1316/250 544/1317/250 543/1318/250
f 544/1319/248 549/1316/248 548/1320/248 545/1321/248
f 550/1315/249 543/1322/249 546/1323/249 547/1324/249
o Cylinder
v 0.895388 0.983681 2.694915
v 1.883621 0.983681 2.685666
v 0.895495 0.940814 2.700047
v 1.883729 0.940814 2.690798
v 0.895777 0.899772 2.713441
v 1.884010 0.899772 2.704192
v 0.896221 0.862132 2.734583
v 1.884454 0.862132 2.725334
v 0.896811 0.829341 2.762661
v 1.885044 0.829341 2.753412
v 0.897523 0.802659 2.796595
v 1.885757 0.802659 2.787345
v 0.898332 0.783111 2.835080
v 1.886565 0.783111 2.825831
v 0.899204 0.771449 2.876640
v 1.887438 0.771449 2.867391
v 0.900108 0.768120 2.919675
v 1.888342 0.768120 2.910426
v 0.901008 0.773253 2.962533
v 1.889242 0.773253 2.953284
v 0.901870 0.786651 3.003566
v 1.890104 0.786651 2.994317
v 0.902661 0.807798 3.041197
v 1.890894 0.807798 3.031948
v 0.903349 0.835881 3.073981
v 1.891583 0.835881 3.064732
v 0.903910 0.869823 3.100657
v 1.892143 0.869823 3.091408
v 0.904320 0.908317 3.120201
v 1.892554 0.908317 3.110952
v 0.904565 0.949885 3.131861
v 1.892798 0.949885 3.122612
v 0.904635 0.992930 3.135189
v 1.892868 0.992930 3.125939
v 0.904527 1.035797 3.130057
v 1.892761 1.035798 3.120807
v 0.904246 1.076840 3.116662
v 1.892479 1.076840 3.107413
v 0.903802 1.114479 3.095520
v 1.892035 1.114479 3.086271
v 0.903212 1.147270 3.067443
v 1.891445 1.147270 3.058193
v 0.902499 1.173953 3.033509
v 1.890733 1.173953 3.024260
v 0.901691 1.193500 2.995023
v 1.889924 1.193500 2.985774
v 0.900818 1.205163 2.953464
v 1.889051 1.205163 2.944214
v 0.899914 1.208491 2.910428
v 1.888148 1.208491 2.901179
v 0.899014 1.203358 2.867570
v 1.887247 1.203358 2.858321
v 0.898152 1.189961 2.826537
v 1.886386 1.189961 2.817288
v 0.897362 1.168814 2.788906
v 1.885595 1.168814 2.779657
v 0.896673 1.140730 2.756122
v 1.884907 1.140730 2.746873
v 0.896113 1.106789 2.729446
v 1.884346 1.106789 2.720197
v 0.895702 1.068294 2.709902
v 1.883936 1.068294 2.700653
v 0.895458 1.026726 2.698243
v 1.883691 1.026726 2.688993
v 1.939928 0.957187 2.764920
v 1.939857 0.985276 2.761557
v 1.940112 0.930294 2.773696
v 1.940403 0.905630 2.787550
v 1.940790 0.884144 2.805948
v 1.941257 0.866660 2.828183
v 1.941786 0.853851 2.853401
v 1.942358 0.846209 2.880633
v 1.942951 0.844028 2.908832
v 1.943540 0.847392 2.936915
v 1.944105 0.856170 2.963802
v 1.944623 0.870027 2.988460
v 1.945074 0.888429 3.009942
v 1.945441 0.910669 3.027421
v 1.945710 0.935893 3.040227
v 1.945871 0.963131 3.047868
v 1.945917 0.991336 3.050048
v 1.945846 1.019425 3.046685
v 1.945662 1.046318 3.037909
v 1.945371 1.070982 3.024055
v 1.944984 1.092468 3.005657
v 1.944517 1.109952 2.983422
v 1.943988 1.122760 2.958204
v 1.943416 1.130402 2.930972
v 1.942823 1.132583 2.902773
v 1.942234 1.129220 2.874690
v 1.941669 1.120441 2.847803
v 1.941151 1.106585 2.823145
v 1.940700 1.088183 2.801663
v 1.940333 1.065942 2.784184
v 1.940064 1.040719 2.771378
v 1.939903 1.013481 2.763737
v 1.140544 0.957171 2.778372
v 1.140474 0.985260 2.775010
v 1.140729 0.930278 2.787149
v 1.141020 0.905615 2.801003
v 1.141406 0.884128 2.819400
v 1.141873 0.866645 2.841636
v 1.142403 0.853836 2.866854
v 1.142975 0.846194 2.894086
v 1.143567 0.844013 2.922285
v 1.144157 0.847376 2.950367
v 1.144722 0.856155 2.977255
v 1.145239 0.870012 3.001913
v 1.145691 0.888413 3.023395
v 1.146058 0.910654 3.040874
v 1.146327 0.935877 3.053680
v 1.146487 0.963115 3.061320
v 1.146533 0.991321 3.063501
v 1.146462 1.019410 3.060138
v 1.146278 1.046303 3.051361
v 1.145987 1.070966 3.037508
v 1.145601 1.092453 3.019110
v 1.145134 1.109936 2.996875
v 1.144604 1.122745 2.971657
v 1.144032 1.130387 2.944425
v 1.143440 1.132568 2.916225
v 1.142850 1.129204 2.888143
v 1.142285 1.120426 2.861256
v 1.141767 1.106569 2.836597
v 1.141316 1.088167 2.815116
v 1.140949 1.065927 2.797636
v 1.140680 1.040703 2.784830
v 1.140519 1.013465 2.777190
v 2.646255 0.957187 2.764920
v 2.646184 0.985276 2.761557
v 2.646440 0.930294 2.773696
v 2.646730 0.905630 2.787550
v 2.647117 0.884144 2.805948
v 2.647584 0.866660 2.828183
v 2.648113 0.853851 2.853401
v 2.648685 0.846210 2.880633
v 2.649278 0.844028 2.908832
v 2.649868 0.847392 2.936915
v 2.650432 0.856170 2.963802
v 2.650950 0.870027 2.988460
v 2.651401 0.888429 3.009942
v 2.651768 0.910669 3.027421
v 2.652037 0.935893 3.040227
v 2.652198 0.963131 3.047868
v 2.652244 0.991336 3.050048
v 2.652173 1.019425 3.046685
v 2.651989 1.046318 3.037909
v 2.651698 1.070982 3.024055
v 2.651311 1.092468 3.005657
v 2.650844 1.109952 2.983422
v 2.650315 1.122760 2.958204
v 2.649743 1.130402 2.930972
v 2.649150 1.132583 2.902773
v 2.648561 1.129220 2.874690
v 2.647996 1.120441 2.847803
v 2.647478 1.106585 2.823145
v 2.647027 1.088183 2.801663
v 2.646660 1.065942 2.784184
v 2.646391 1.040719 2.771378
v 2.646230 1.013481 2.763737
vn -0.0093 -0.1189 -0.9929
vn -0.0089 -0.3103 -0.9506
vn -0.0082 -0.4898 -0.8718
vn -0.0071 -0.6505 -0.7595
vn -0.0058 -0.7861 -0.6180
vn -0.0042 -0.8916 -0.4528
vn -0.0025 -0.9628 -0.2701
vn -0.0007 -0.9970 -0.0771
vn 0.0011 -0.9929 0.1189
vn 0.0029 -0.9506 0.3103
vn 0.0046 -0.8718 0.4898
vn 0.0061 -0.7595 0.6505
vn 0.0074 -0.6180 0.7861
vn 0.0083 -0.4527 0.8916
vn 0.0090 -0.2701 0.9628
vn 0.0093 -0.0771 0.9970
vn 0.0093 0.1189 0.9929
vn 0.0089 0.3103 0.9506
vn 0.0082 0.4898 0.8718
vn 0.0071 0.6505 0.7595
vn 0.0058 0.7861 0.6180
vn 0.0042 0.8916 0.4528
vn 0.0025 0.9628 0.2701
vn 0.0007 0.9970 0.0771
vn -0.0011 0.9929 -0.1189
vn -0.0029 0.9506 -0.3103
vn -0.0046 0.8718 -0.4898
vn -0.0061 0.7595 -0.6505
vn -0.0074 0.6180 -0.7861
vn -0.0083 0.4527 -0.8916
vn 0.8066 -0.5201 -0.2811
vn -0.0090 0.2701 -0.9628
vn -0.0093 0.0771 -0.9970
vn -0.9998 -0.0000 0.0210
vn -0.0168 0.0771 -0.9969
vn 0.8180 -0.1598 0.5525
vn 0.8108 0.5846 0.0282
vn 0.8026 -0.1801 -0.5687
vn 0.8142 -0.5133 0.2714
vn 0.8164 0.3840 0.4314
vn 0.8039 0.3593 -0.4740
vn 0.8080 -0.5626 -0.1749
vn 0.8183 -0.0456 0.5730
vn 0.8092 0.5811 -0.0866
vn 0.8032 -0.2845 -0.5234
vn 0.8155 -0.4479 0.3666
vn 0.8152 0.4635 0.3473
vn 0.8030 0.2629 -0.5348
vn 0.8096 -0.5837 -0.0622
vn 0.8183 0.0704 0.5705
vn 0.8077 0.5553 -0.1983
vn 0.8041 -0.3783 -0.4586
vn 0.8166 -0.3650 0.4472
vn 0.8139 0.5248 0.2495
vn 0.8025 0.1568 -0.5757
vn 0.8112 -0.5824 0.0527
vn 0.8179 0.1836 0.5453
vn 0.8062 0.5083 -0.3026
vn 0.8052 -0.4578 -0.3769
vn 0.8174 -0.2677 0.5100
vn 0.8124 0.5656 0.1417
vn 0.8022 -0.0690 -0.5930
vn 0.8022 0.0447 -0.5954
vn 0.8127 -0.5587 0.1654
vn 0.8173 0.2895 0.4982
vn 0.8050 0.4421 -0.3957
vn 0.9998 -0.0000 -0.0210
vn 0.0147 0.4898 0.8717
vn 0.0150 -0.4528 0.8915
vn -0.0167 -0.1189 -0.9928
vn 0.0128 0.6505 0.7594
vn 0.0162 -0.2701 0.9627
vn -0.0160 -0.3103 -0.9505
vn 0.0104 0.7862 0.6179
vn 0.0168 -0.0771 0.9969
vn -0.0147 -0.4898 -0.8717
vn 0.0076 0.8916 0.4527
vn -0.0128 -0.6505 -0.7594
vn 0.0045 0.9628 0.2701
vn -0.0104 -0.7862 -0.6179
vn 0.0013 0.9970 0.0771
vn -0.0076 -0.8916 -0.4527
vn -0.0020 0.9929 -0.1189
vn -0.0045 -0.9628 -0.2701
vn -0.0052 0.9506 -0.3103
vn -0.0013 -0.9970 -0.0771
vn -0.0083 0.8718 -0.4897
vn 0.0020 -0.9929 0.1189
vn -0.0110 0.7595 -0.6504
vn 0.0052 -0.9506 0.3103
vn -0.0132 0.6180 -0.7861
vn 0.0083 -0.8718 0.4897
vn -0.0150 0.4528 -0.8915
vn 0.0167 0.1189 0.9928
vn 0.0110 -0.7595 0.6504
vn -0.0162 0.2701 -0.9627
vn 0.0160 0.3103 0.9505
vn 0.0132 -0.6180 0.7861
vn 0.0000 -0.0771 0.9970
vn 0.0000 0.4897 0.8719
vn 0.0000 -0.4527 0.8917
vn 0.0000 -0.1189 -0.9929
vn 0.0000 0.6504 0.7596
vn 0.0000 -0.2701 0.9628
vn -0.0000 -0.3103 -0.9507
vn 0.0000 0.7861 0.6181
vn 0.0000 -0.4897 -0.8719
vn 0.0000 0.8916 0.4529
vn 0.0000 -0.6504 -0.7596
vn 0.0000 0.9628 0.2702
vn 0.0000 -0.7861 -0.6181
vn -0.0000 0.9970 0.0771
vn 0.0000 -0.8916 -0.4529
vn -0.0000 0.9929 -0.1189
vn 0.0000 -0.9628 -0.2702
vn 0.0000 0.9506 -0.3104
vn 0.0000 -0.9970 -0.0771
vn 0.0000 0.8718 -0.4899
vn 0.0000 -0.9929 0.1189
vn 0.0000 0.7594 -0.6506
vn 0.0000 -0.9506 0.3104
vn 0.0000 0.6179 -0.7862
vn 0.0000 -0.8718 0.4899
vn 0.0000 0.4527 -0.8917
vn 0.0000 0.1189 0.9929
vn 0.0000 -0.7594 0.6506
vn 0.0000 0.2701 -0.9628
vn 0.0000 0.3103 0.9507
vn 0.0000 -0.6179 0.7862
usemtl Material.003
s off
f 551//251 552//251 554//251 553//251
f 553//252 554//252 556//252 555//252
f 555//253 556//253 558//253 557//253
f 557//254 558//254 560//254 559//254
f 559//255 560//255 562//255 561//255
f 561//256 562//256 564//256 563//256
f 563//257 564//257 566//257 565//257
f 565//258 566//258 568//258 567//258
f 567//259 568//259 570//259 569//259
f 569//260 570//260 572//260 571//260
f 571//261 572//261 574//261 573//261
f 573//262 574//262 576//262 575//262
f 575//263 576//263 578//263 577//263
f 577//264 578//264 580//264 579//264
f 579//265 580//265 582//265 581//265
f 581//266 582//266 584//266 583//266
f 583//267 584//267 586//267 585//267
f 585//268 586//268 588//268 587//268
f 587//269 588//269 590//269 589//269
f 589//270 590//270 592//270 591//270
f 591//271 592//271 594//271 593//271
f 593//272 594//272 596//272 595//272
f 595//273 596//273 598//273 597//273
f 597//274 598//274 600//274 599//274
f 599//275 600//275 602//275 601//275
f 601//276 602//276 604//276 603//276
f 603//277 604//277 606//277 605//277
f 605//278 606//278 608//278 607//278
f 607//279 608//279 610//279 609//279
f 609//280 610//280 612//280 611//280
f 564//281 562//281 620//281 621//281
f 611//282 612//282 614//282 613//282
f 613//283 614//283 552//283 551//283
f 551//284 553//284 555//284 557//284 559//284 561//284 563//284 565//284 567//284 569//284 571//284 573//284 575//284 577//284 579//284 581//284 583//284 585//284 587//284 589//284 591//284 593//284 595//284 597//284 599//284 601//284 603//284 605//284 607//284 609//284 611//284 613//284
f 631//285 630//285 662//285 663//285
f 582//286 580//286 629//286 630//286
f 600//287 598//287 638//287 639//287
f 556//288 554//288 615//288 617//288
f 574//289 572//289 625//289 626//289
f 592//290 590//290 634//290 635//290
f 610//291 608//291 643//291 644//291
f 566//292 564//292 621//292 622//292
f 584//293 582//293 630//293 631//293
f 602//294 600//294 639//294 640//294
f 558//295 556//295 617//295 618//295
f 576//296 574//296 626//296 627//296
f 594//297 592//297 635//297 636//297
f 612//298 610//298 644//298 645//298
f 568//299 566//299 622//299 623//299
f 586//300 584//300 631//300 632//300
f 604//301 602//301 640//301 641//301
f 560//302 558//302 618//302 619//302
f 578//303 576//303 627//303 628//303
f 596//304 594//304 636//304 637//304
f 614//305 612//305 645//305 646//305
f 570//306 568//306 623//306 624//306
f 588//307 586//307 632//307 633//307
f 606//308 604//308 641//308 642//308
f 562//309 560//309 619//309 620//309
f 580//310 578//310 628//310 629//310
f 598//311 596//311 637//311 638//311
f 554//312 552//312 616//312 615//312
f 552//313 614//313 646//313 616//313
f 572//314 570//314 624//314 625//314
f 590//315 588//315 633//315 634//315
f 608//316 606//316 642//316 643//316
f 647//317 648//317 678//317 677//317 676//317 675//317 674//317 673//317 672//317 671//317 670//317 669//317 668//317 667//317 666//317 665//317 664//317 663//317 662//317 661//317 660//317 659//317 658//317 657//317 656//317 655//317 654//317 653//317 652//317 651//317 650//317 649//317
f 618//318 617//318 649//318 650//318
f 645//319 644//319 676//319 677//319
f 632//320 631//320 663//320 664//320
f 619//321 618//321 650//321 651//321
f 646//322 645//322 677//322 678//322
f 633//323 632//323 664//323 665//323
f 620//324 619//324 651//324 652//324
f 616//325 646//325 678//325 648//325
f 634//326 633//326 665//326 666//326
f 621//327 620//327 652//327 653//327
f 635//328 634//328 666//328 667//328
f 622//329 621//329 653//329 654//329
f 636//330 635//330 667//330 668//330
f 623//331 622//331 654//331 655//331
f 637//332 636//332 668//332 669//332
f 624//333 623//333 655//333 656//333
f 638//334 637//334 669//334 670//334
f 625//335 624//335 656//335 657//335
f 639//336 638//336 670//336 671//336
f 626//337 625//337 657//337 658//337
f 640//338 639//338 671//338 672//338
f 627//339 626//339 658//339 659//339
f 641//340 640//340 672//340 673//340
f 628//341 627//341 659//341 660//341
f 642//342 641//342 673//342 674//342
f 629//343 628//343 660//343 661//343
f 615//344 616//344 648//344 647//344
f 643//345 642//345 674//345 675//345
f 630//346 629//346 661//346 662//346
f 617//347 615//347 647//347 649//347
f 644//348 643//348 675//348 676//348
f 631//349 630//349 694//349 695//349
f 617//350 618//350 682//350 681//350
f 644//351 645//351 709//351 708//351
f 631//352 632//352 696//352 695//352
f 618//353 619//353 683//353 682//353
f 645//354 646//354 710//354 709//354
f 632//355 633//355 697//355 696//355
f 619//356 620//356 684//356 683//356
f 646//349 616//349 680//349 710//349
f 633//357 634//357 698//357 697//357
f 620//358 621//358 685//358 684//358
f 634//359 635//359 699//359 698//359
f 621//360 622//360 686//360 685//360
f 635//361 636//361 700//361 699//361
f 622//362 623//362 687//362 686//362
f 636//363 637//363 701//363 700//363
f 623//364 624//364 688//364 687//364
f 637//365 638//365 702//365 701//365
f 624//366 625//366 689//366 688//366
f 638//367 639//367 703//367 702//367
f 625//368 626//368 690//368 689//368
f 639//369 640//369 704//369 703//369
f 626//370 627//370 691//370 690//370
f 640//371 641//371 705//371 704//371
f 627//372 628//372 692//372 691//372
f 641//373 642//373 706//373 705//373
f 628//374 629//374 693//374 692//374
f 616//375 615//375 679//375 680//375
f 642//376 643//376 707//376 706//376
f 629//377 630//377 694//377 693//377
f 615//378 617//378 681//378 679//378
f 643//379 644//379 708//379 707//379
o Cylinder.001_Cylinder.002
v 0.895388 0.983681 -3.025974
v 1.883621 0.983681 -3.035223
v 0.895495 0.940814 -3.020842
v 1.883729 0.940814 -3.030091
v 0.895777 0.899772 -3.007448
v 1.884010 0.899772 -3.016697
v 0.896221 0.862132 -2.986305
v 1.884454 0.862132 -2.995555
v 0.896811 0.829341 -2.958228
v 1.885044 0.829341 -2.967477
v 0.897523 0.802659 -2.924294
v 1.885757 0.802659 -2.933544
v 0.898332 0.783111 -2.885808
v 1.886565 0.783111 -2.895058
v 0.899204 0.771449 -2.844249
v 1.887438 0.771449 -2.853498
v 0.900108 0.768120 -2.801214
v 1.888342 0.768120 -2.810463
v 0.901008 0.773253 -2.758356
v 1.889242 0.773253 -2.767605
v 0.901870 0.786651 -2.717323
v 1.890104 0.786651 -2.726572
v 0.902661 0.807798 -2.679692
v 1.890894 0.807798 -2.688941
v 0.903349 0.835881 -2.646908
v 1.891583 0.835881 -2.656157
v 0.903910 0.869823 -2.620231
v 1.892143 0.869823 -2.629481
v 0.904320 0.908317 -2.600688
v 1.892554 0.908317 -2.609937
v 0.904565 0.949885 -2.589028
v 1.892798 0.949885 -2.598277
v 0.904635 0.992930 -2.585700
v 1.892868 0.992930 -2.594949
v 0.904527 1.035797 -2.590832
v 1.892761 1.035798 -2.600081
v 0.904246 1.076840 -2.604227
v 1.892479 1.076840 -2.613476
v 0.903802 1.114479 -2.625369
v 1.892035 1.114479 -2.634618
v 0.903212 1.147270 -2.653446
v 1.891445 1.147270 -2.662695
v 0.902499 1.173953 -2.687380
v 1.890733 1.173953 -2.696629
v 0.901691 1.193500 -2.725866
v 1.889924 1.193500 -2.735115
v 0.900818 1.205163 -2.767425
v 1.889051 1.205163 -2.776675
v 0.899914 1.208491 -2.810461
v 1.888148 1.208491 -2.819710
v 0.899014 1.203358 -2.853318
v 1.887247 1.203358 -2.862568
v 0.898152 1.189961 -2.894351
v 1.886386 1.189961 -2.903601
v 0.897362 1.168814 -2.931983
v 1.885595 1.168814 -2.941232
v 0.896673 1.140730 -2.964767
v 1.884907 1.140730 -2.974016
v 0.896113 1.106789 -2.991443
v 1.884346 1.106789 -3.000692
v 0.895702 1.068294 -3.010987
v 1.883936 1.068294 -3.020236
v 0.895458 1.026726 -3.022646
v 1.883691 1.026726 -3.031895
v 1.939928 0.957187 -2.955969
v 1.939857 0.985276 -2.959332
v 1.940112 0.930294 -2.947193
v 1.940403 0.905630 -2.933339
v 1.940790 0.884144 -2.914941
v 1.941257 0.866660 -2.892706
v 1.941786 0.853851 -2.867488
v 1.942358 0.846209 -2.840256
v 1.942951 0.844028 -2.812057
v 1.943540 0.847392 -2.783974
v 1.944105 0.856170 -2.757087
v 1.944623 0.870027 -2.732429
v 1.945074 0.888429 -2.710947
v 1.945441 0.910669 -2.693467
v 1.945710 0.935893 -2.680661
v 1.945871 0.963131 -2.673021
v 1.945917 0.991336 -2.670841
v 1.945846 1.019425 -2.674203
v 1.945662 1.046318 -2.682980
v 1.945371 1.070982 -2.696834
v 1.944984 1.092468 -2.715232
v 1.944517 1.109952 -2.737467
v 1.943988 1.122760 -2.762685
v 1.943416 1.130402 -2.789917
v 1.942823 1.132583 -2.818116
v 1.942234 1.129220 -2.846199
v 1.941669 1.120441 -2.873086
v 1.941151 1.106585 -2.897744
v 1.940700 1.088183 -2.919226
v 1.940333 1.065942 -2.936706
v 1.940064 1.040719 -2.949512
v 1.939903 1.013481 -2.957151
v 1.140544 0.957171 -2.942517
v 1.140474 0.985260 -2.945879
v 1.140729 0.930278 -2.933740
v 1.141020 0.905615 -2.919886
v 1.141406 0.884128 -2.901489
v 1.141873 0.866645 -2.879253
v 1.142403 0.853836 -2.854035
v 1.142975 0.846194 -2.826803
v 1.143567 0.844013 -2.798604
v 1.144157 0.847376 -2.770521
v 1.144722 0.856155 -2.743634
v 1.145239 0.870012 -2.718976
v 1.145691 0.888413 -2.697494
v 1.146058 0.910654 -2.680015
v 1.146327 0.935877 -2.667209
v 1.146487 0.963115 -2.659569
v 1.146533 0.991321 -2.657388
v 1.146462 1.019410 -2.660751
v 1.146278 1.046303 -2.669528
v 1.145987 1.070966 -2.683381
v 1.145601 1.092453 -2.701779
v 1.145134 1.109936 -2.724014
v 1.144604 1.122745 -2.749232
v 1.144032 1.130387 -2.776464
v 1.143440 1.132568 -2.804663
v 1.142850 1.129204 -2.832746
v 1.142285 1.120426 -2.859633
v 1.141767 1.106569 -2.884291
v 1.141316 1.088167 -2.905773
v 1.140949 1.065927 -2.923253
v 1.140680 1.040703 -2.936059
v 1.140519 1.013465 -2.943699
v 2.646255 0.957187 -2.955969
v 2.646184 0.985276 -2.959332
v 2.646440 0.930294 -2.947193
v 2.646730 0.905630 -2.933339
v 2.647117 0.884144 -2.914941
v 2.647584 0.866660 -2.892706
v 2.648113 0.853851 -2.867488
v 2.648685 0.846210 -2.840256
v 2.649278 0.844028 -2.812057
v 2.649868 0.847392 -2.783974
v 2.650432 0.856170 -2.757087
v 2.650950 0.870027 -2.732429
v 2.651401 0.888429 -2.710947
v 2.651768 0.910669 -2.693467
v 2.652037 0.935893 -2.680661
v 2.652198 0.963131 -2.673021
v 2.652244 0.991336 -2.670841
v 2.652173 1.019425 -2.674203
v 2.651989 1.046318 -2.682980
v 2.651698 1.070982 -2.696834
v 2.651311 1.092468 -2.715232
v 2.650844 1.109952 -2.737467
v 2.650315 1.122760 -2.762685
v 2.649743 1.130402 -2.789917
v 2.649150 1.132583 -2.818116
v 2.648561 1.129220 -2.846199
v 2.647996 1.120441 -2.873086
v 2.647478 1.106585 -2.897744
v 2.647027 1.088183 -2.919226
v 2.646660 1.065942 -2.936706
v 2.646391 1.040719 -2.949512
v 2.646230 1.013481 -2.957151
vn -0.0093 -0.1189 -0.9929
vn -0.0089 -0.3103 -0.9506
vn -0.0082 -0.4898 -0.8718
vn -0.0071 -0.6505 -0.7595
vn -0.0058 -0.7861 -0.6180
vn -0.0042 -0.8916 -0.4528
vn -0.0025 -0.9628 -0.2701
vn -0.0007 -0.9970 -0.0771
vn 0.0011 -0.9929 0.1189
vn 0.0029 -0.9506 0.3103
vn 0.0046 -0.8718 0.4898
vn 0.0061 -0.7595 0.6505
vn 0.0074 -0.6180 0.7861
vn 0.0083 -0.4527 0.8916
vn 0.0090 -0.2701 0.9628
vn 0.0093 -0.0771 0.9970
vn 0.0093 0.1189 0.9929
vn 0.0089 0.3103 0.9506
vn 0.0082 0.4898 0.8718
vn 0.0071 0.6505 0.7595
vn 0.0058 0.7861 0.6180
vn 0.0042 0.8916 0.4528
vn 0.0025 0.9628 0.2701
vn 0.0007 0.9970 0.0771
vn -0.0011 0.9929 -0.1189
vn -0.0029 0.9506 -0.3103
vn -0.0046 0.8718 -0.4898
vn -0.0061 0.7595 -0.6505
vn -0.0074 0.6180 -0.7861
vn -0.0083 0.4527 -0.8916
vn 0.8066 -0.5201 -0.2811
vn -0.0090 0.2701 -0.9628
vn -0.0093 0.0771 -0.9970
vn -0.9998 0.0000 0.0210
vn -0.0168 0.0771 -0.9969
vn 0.8180 -0.1598 0.5525
vn 0.8108 0.5846 0.0282
vn 0.8026 -0.1801 -0.5687
vn 0.8142 -0.5133 0.2714
vn 0.8164 0.3840 0.4314
vn 0.8039 0.3593 -0.4740
vn 0.8080 -0.5626 -0.1749
vn 0.8183 -0.0456 0.5730
vn 0.8092 0.5811 -0.0866
vn 0.8032 -0.2845 -0.5234
vn 0.8155 -0.4479 0.3666
vn 0.8152 0.4635 0.3473
vn 0.8030 0.2629 -0.5348
vn 0.8096 -0.5837 -0.0622
vn 0.8183 0.0704 0.5705
vn 0.8077 0.5553 -0.1983
vn 0.8041 -0.3783 -0.4586
vn 0.8166 -0.3650 0.4472
vn 0.8139 0.5248 0.2495
vn 0.8025 0.1568 -0.5757
vn 0.8112 -0.5824 0.0527
vn 0.8179 0.1836 0.5453
vn 0.8063 0.5083 -0.3026
vn 0.8052 -0.4578 -0.3769
vn 0.8174 -0.2677 0.5100
vn 0.8124 0.5657 0.1417
vn 0.8022 -0.0690 -0.5930
vn 0.8022 0.0447 -0.5954
vn 0.8127 -0.5587 0.1654
vn 0.8173 0.2895 0.4982
vn 0.8050 0.4421 -0.3957
vn 0.9998 -0.0000 -0.0210
vn 0.0147 0.4898 0.8717
vn 0.0150 -0.4528 0.8915
vn -0.0167 -0.1189 -0.9928
vn 0.0128 0.6505 0.7594
vn 0.0162 -0.2701 0.9627
vn -0.0160 -0.3103 -0.9505
vn 0.0104 0.7862 0.6179
vn 0.0168 -0.0771 0.9969
vn -0.0147 -0.4898 -0.8717
vn 0.0076 0.8916 0.4527
vn -0.0128 -0.6505 -0.7594
vn 0.0045 0.9628 0.2701
vn -0.0104 -0.7862 -0.6179
vn 0.0013 0.9970 0.0771
vn -0.0076 -0.8916 -0.4527
vn -0.0020 0.9929 -0.1189
vn -0.0045 -0.9628 -0.2701
vn -0.0052 0.9506 -0.3103
vn -0.0013 -0.9970 -0.0771
vn -0.0083 0.8718 -0.4897
vn 0.0020 -0.9929 0.1189
vn -0.0110 0.7595 -0.6504
vn 0.0052 -0.9506 0.3103
vn -0.0132 0.6180 -0.7861
vn 0.0083 -0.8718 0.4897
vn -0.0150 0.4528 -0.8915
vn 0.0167 0.1189 0.9928
vn 0.0110 -0.7595 0.6504
vn -0.0162 0.2701 -0.9627
vn 0.0160 0.3103 0.9505
vn 0.0132 -0.6180 0.7860
vn 0.0000 -0.0771 0.9970
vn 0.0000 0.4897 0.8719
vn 0.0000 -0.4527 0.8917
vn 0.0000 -0.1189 -0.9929
vn 0.0000 0.6504 0.7596
vn 0.0000 -0.2701 0.9628
vn 0.0000 -0.3103 -0.9507
vn 0.0000 0.7861 0.6181
vn 0.0000 -0.4897 -0.8719
vn 0.0000 0.8916 0.4529
vn 0.0000 -0.6504 -0.7596
vn 0.0000 0.9628 0.2702
vn 0.0000 -0.7861 -0.6181
vn -0.0000 0.9970 0.0771
vn 0.0000 -0.8916 -0.4529
vn -0.0000 0.9929 -0.1189
vn 0.0000 -0.9628 -0.2702
vn 0.0000 0.9506 -0.3104
vn 0.0000 -0.9970 -0.0771
vn 0.0000 0.8718 -0.4899
vn 0.0000 -0.9929 0.1189
vn 0.0000 0.7594 -0.6506
vn 0.0000 -0.9506 0.3104
vn 0.0000 0.6179 -0.7862
vn 0.0000 -0.8718 0.4899
vn 0.0000 0.4527 -0.8917
vn 0.0000 0.1189 0.9929
vn 0.0000 -0.7594 0.6506
vn 0.0000 0.2701 -0.9628
vn 0.0000 0.3103 0.9507
vn 0.0000 -0.6179 0.7862
usemtl Material.005
s off
f 711//380 712//380 714//380 713//380
f 713//381 714//381 716//381 715//381
f 715//382 716//382 718//382 717//382
f 717//383 718//383 720//383 719//383
f 719//384 720//384 722//384 721//384
f 721//385 722//385 724//385 723//385
f 723//386 724//386 726//386 725//386
f 725//387 726//387 728//387 727//387
f 727//388 728//388 730//388 729//388
f 729//389 730//389 732//389 731//389
f 731//390 732//390 734//390 733//390
f 733//391 734//391 736//391 735//391
f 735//392 736//392 738//392 737//392
f 737//393 738//393 740//393 739//393
f 739//394 740//394 742//394 741//394
f 741//395 742//395 744//395 743//395
f 743//396 744//396 746//396 745//396
f 745//397 746//397 748//397 747//397
f 747//398 748//398 750//398 749//398
f 749//399 750//399 752//399 751//399
f 751//400 752//400 754//400 753//400
f 753//401 754//401 756//401 755//401
f 755//402 756//402 758//402 757//402
f 757//403 758//403 760//403 759//403
f 759//404 760//404 762//404 761//404
f 761//405 762//405 764//405 763//405
f 763//406 764//406 766//406 765//406
f 765//407 766//407 768//407 767//407
f 767//408 768//408 770//408 769//408
f 769//409 770//409 772//409 771//409
f 724//410 722//410 780//410 781//410
f 771//411 772//411 774//411 773//411
f 773//412 774//412 712//412 711//412
f 711//413 713//413 715//413 717//413 719//413 721//413 723//413 725//413 727//413 729//413 731//413 733//413 735//413 737//413 739//413 741//413 743//413 745//413 747//413 749//413 751//413 753//413 755//413 757//413 759//413 761//413 763//413 765//413 767//413 769//413 771//413 773//413
f 791//414 790//414 822//414 823//414
f 742//415 740//415 789//415 790//415
f 760//416 758//416 798//416 799//416
f 716//417 714//417 775//417 777//417
f 734//418 732//418 785//418 786//418
f 752//419 750//419 794//419 795//419
f 770//420 768//420 803//420 804//420
f 726//421 724//421 781//421 782//421
f 744//422 742//422 790//422 791//422
f 762//423 760//423 799//423 800//423
f 718//424 716//424 777//424 778//424
f 736//425 734//425 786//425 787//425
f 754//426 752//426 795//426 796//426
f 772//427 770//427 804//427 805//427
f 728//428 726//428 782//428 783//428
f 746//429 744//429 791//429 792//429
f 764//430 762//430 800//430 801//430
f 720//431 718//431 778//431 779//431
f 738//432 736//432 787//432 788//432
f 756//433 754//433 796//433 797//433
f 774//434 772//434 805//434 806//434
f 730//435 728//435 783//435 784//435
f 748//436 746//436 792//436 793//436
f 766//437 764//437 801//437 802//437
f 722//438 720//438 779//438 780//438
f 740//439 738//439 788//439 789//439
f 758//440 756//440 797//440 798//440
f 714//441 712//441 776//441 775//441
f 712//442 774//442 806//442 776//442
f 732//443 730//443 784//443 785//443
f 750//444 748//444 793//444 794//444
f 768//445 766//445 802//445 803//445
f 807//446 808//446 838//446 837//446 836//446 835//446 834//446 833//446 832//446 831//446 830//446 829//446 828//446 827//446 826//446 825//446 824//446 823//446 822//446 821//446 820//446 819//446 818//446 817//446 816//446 815//446 814//446 813//446 812//446 811//446 810//446 809//446
f 778//447 777//447 809//447 810//447
f 805//448 804//448 836//448 837//448
f 792//449 791//449 823//449 824//449
f 779//450 778//450 810//450 811//450
f 806//451 805//451 837//451 838//451
f 793//452 792//452 824//452 825//452
f 780//453 779//453 811//453 812//453
f 776//454 806//454 838//454 808//454
f 794//455 793//455 825//455 826//455
f 781//456 780//456 812//456 813//456
f 795//457 794//457 826//457 827//457
f 782//458 781//458 813//458 814//458
f 796//459 795//459 827//459 828//459
f 783//460 782//460 814//460 815//460
f 797//461 796//461 828//461 829//461
f 784//462 783//462 815//462 816//462
f 798//463 797//463 829//463 830//463
f 785//464 784//464 816//464 817//464
f 799//465 798//465 830//465 831//465
f 786//466 785//466 817//466 818//466
f 800//467 799//467 831//467 832//467
f 787//468 786//468 818//468 819//468
f 801//469 800//469 832//469 833//469
f 788//470 787//470 819//470 820//470
f 802//471 801//471 833//471 834//471
f 789//472 788//472 820//472 821//472
f 775//473 776//473 808//473 807//473
f 803//474 802//474 834//474 835//474
f 790//475 789//475 821//475 822//475
f 777//476 775//476 807//476 809//476
f 804//477 803//477 835//477 836//477
f 791//478 790//478 854//478 855//478
f 777//479 778//479 842//479 841//479
f 804//480 805//480 869//480 868//480
f 791//481 792//481 856//481 855//481
f 778//482 779//482 843//482 842//482
f 805//483 806//483 870//483 869//483
f 792//484 793//484 857//484 856//484
f 779//485 780//485 844//485 843//485
f 806//478 776//478 840//478 870//478
f 793//486 794//486 858//486 857//486
f 780//487 781//487 845//487 844//487
f 794//488 795//488 859//488 858//488
f 781//489 782//489 846//489 845//489
f 795//490 796//490 860//490 859//490
f 782//491 783//491 847//491 846//491
f 796//492 797//492 861//492 860//492
f 783//493 784//493 848//493 847//493
f 797//494 798//494 862//494 861//494
f 784//495 785//495 849//495 848//495
f 798//496 799//496 863//496 862//496
f 785//497 786//497 850//497 849//497
f 799//498 800//498 864//498 863//498
f 786//499 787//499 851//499 850//499
f 800//500 801//500 865//500 864//500
f 787//501 788//501 852//501 851//501
f 801//502 802//502 866//502 865//502
f 788//503 789//503 853//503 852//503
f 776//504 775//504 839//504 840//504
f 802//505 803//505 867//505 866//505
f 789//506 790//506 854//506 853//506
f 775//507 777//507 841//507 839//507
f 803//508 804//508 868//508 867//508
